Place,Name,Country,WeightClassKg,BodyweightKg,Squat1Kg,Squat2Kg,Squat3Kg,Squat4Kg,Bench1Kg,Bench2Kg,Bench3Kg,Bench4Kg,Deadlift1Kg,Deadlift2Kg,Deadlift3Kg,Deadlift4Kg,TotalKg,Division,Tested,Sex,Event,Equipment,Best3SquatKg,Best3BenchKg,Best3DeadliftKg,BirthYear,BirthDate
1,Mykhailo Rymarchuk,Ukraine,44,41.55,55,62.5,67.5,70,30,-35,-35,,62.5,72.5,75,,172.5,Amateur Youth 8,Yes,M,SBD,Wraps,67.5,30,75,2010,
1,Khachik Tadevosyan,Armenia,44,33.15,50,60,65,,35,-40,-40,,90,100,-110,,200,Amateur Sub-Teen 11-12,Yes,M,SBD,Wraps,65,35,100,2007,
1,Vahan Budaghyan,Armenia,52,51.2,60,70,75,,60,65,67.5,,110,120,-125,,262.5,Amateur Teen 13-15,Yes,M,SBD,Wraps,75,67.5,120,2004,
1,Jivan Hovhannisyan,Armenia,56,56,70,80,82.5,,65,70,-75,,125,140,-145,,292.5,Amateur Teen 13-15,Yes,M,SBD,Wraps,82.5,70,140,2005,
1,Albert Dadikyan,Armenia,60,60,90,-100,100,,80,-90,90,,160,175,-190,,365,Amateur Teen 13-15,Yes,M,SBD,Wraps,100,90,175,2003,
1,Nver Hovhannisyan,Armenia,67.5,63,-110,110,120,,80,85,-90,,160,182.5,195,,400,Amateur Teen 16-17,Yes,M,SBD,Wraps,120,85,195,2003,
2,Erik Khachatryan,Armenia,67.5,63.9,110,120,130,,80,90,-95,,155,165,177.5,,397.5,Amateur Teen 16-17,Yes,M,SBD,Wraps,130,90,177.5,2002,
1,Vardan Nazaretyan,Armenia,75,70.45,140,150,155,,-75,-80,80,,170,-180,-180,,405,Amateur Teen 16-17,Yes,M,SBD,Wraps,155,80,170,2003,
2,Arshak Hayrapetyan,Armenia,75,73.45,110,120,130,,70,-80,-80,,180,-200,-207.5,,380,Amateur Teen 16-17,Yes,M,SBD,Wraps,130,70,180,2002,
3,Artur Vill,Ukraine,75,73.8,110,115,120,,85,90,95,,140,155,-165,,370,Amateur Teen 16-17,Yes,M,SBD,Wraps,120,95,155,2002,
1,Varazdat Amiryan,Armenia,82.5,80.8,-150,150,-170,,80,90,100,,165,180,-190,,430,Amateur Teen 16-17,Yes,M,SBD,Wraps,150,100,180,2002,
1,Yaroslav Gaviada,Ukraine,100,99.5,210,220,230,,110,120,125,,240,250,260,,615,Amateur Teen 16-17,Yes,M,SBD,Wraps,230,125,260,2003,
1,Igor Fedorenko,Ukraine,110,109.3,190,200,210,,140,-150,-150,,180,190,200,,550,Amateur Teen 16-17,Yes,M,SBD,Wraps,210,140,200,2001,
1,Nazarii Levytskyy,Ukraine,82.5,80.7,180,190,-200,,130,135,140,,200,205,-210,,535,Amateur Teen 18-19,Yes,M,SBD,Wraps,190,140,205,2000,
DQ,Oleksandr Korchaka,Ukraine,82.5,80.3,-200,-200,-200,,-120,,,,-200,,,,,Amateur Teen 18-19,Yes,M,SBD,Wraps,,,,2001,
1,Can Turan,Turkey,90,85.45,150,160,175,,110,120,130,,160,175,190,,495,Amateur Teen 18-19,Yes,M,SBD,Wraps,175,130,190,2000,
1,Rafał Nazaruk,Poland,67.5,66.5,155,162.5,172.5,,132.5,-140,140,,-190,202.5,-210,,515,Amateur Juniors 20-23,Yes,M,SBD,Wraps,172.5,140,202.5,1997,
1,Yuri Sakunts,Armenia,75,69.05,90,100,-120,,90,-102.5,-105,,160,180,-200,,370,Amateur Juniors 20-23,Yes,M,SBD,Wraps,100,90,180,1996,
1,Serdar Tosun,Turkey,82.5,80.75,220,230,240,,145,155,-160,,260,280,-300,,675,Amateur Juniors 20-23,Yes,M,SBD,Wraps,240,155,280,1997,
2,Samvel Hunanyan,Armenia,82.5,81.4,150,170,190,,115,125,-135,,200,225,-235,,540,Amateur Juniors 20-23,Yes,M,SBD,Wraps,190,125,225,1996,
1,Erkar Kumit Ozan,Turkey,90,86.6,200,215,225,,105,-112.5,112.5,,-230,235,245,,582.5,Amateur Juniors 20-23,Yes,M,SBD,Wraps,225,112.5,245,1997,
2,Grigor Harutyunyan,Armenia,90,84.65,180,190,200,,120,130,-140,,220,230,242.5,,572.5,Amateur Juniors 20-23,Yes,M,SBD,Wraps,200,130,242.5,1997,
1,Piotr Brzeziński,Poland,110,105.2,135,155,-170,,90,102.5,-112.5,,190,205,215,,472.5,Amateur Juniors 20-23,Yes,M,SBD,Wraps,155,102.5,215,1995,
1,Edgar Badalyan,Armenia,56,56,-80,-90,90,,75,80,85,,130,135,150,,325,Amateur Open,Yes,M,SBD,Wraps,90,85,150,1987,
1,Varazdat Hakobyan,Armenia,67.5,65,140,160,170,,70,-80,85,,150,170,190,,445,Amateur Open,Yes,M,SBD,Wraps,170,85,190,1989,
1,Zorik Poghosyan,Armenia,82.5,81.75,230,250,257.5,,105,115,-120,,220,235,-240,,607.5,Amateur Open,Yes,M,SBD,Wraps,257.5,115,235,1990,
2,Igor Grishyn,Ukraine,82.5,81.25,-170,170,180,,130,145,-150,,220,230,-240,,555,Amateur Open,Yes,M,SBD,Wraps,180,145,230,1981,
3,Artem Demidov,Ukraine,82.5,78.15,-160,160,-165,,145,-150,150,,215,225,-232.5,,535,Amateur Open,Yes,M,SBD,Wraps,160,150,225,1994,
4,Mykola Kizitskyy,Ukraine,82.5,81.85,-190,190,-200,,125,-130,-130,,190,210,-230,,525,Amateur Open,Yes,M,SBD,Wraps,190,125,210,1977,
1,Oleksandr Avakumov,Ukraine,90,88.2,-240,240,250,,150,155,160,,245,255,265,,675,Amateur Open,Yes,M,SBD,Wraps,250,160,265,1983,
2,Vitaliy Meserenko,Ukraine,90,89.45,230,-245,245,,155,165,-170,,220,230,-237.5,,640,Amateur Open,Yes,M,SBD,Wraps,245,165,230,1976,
3,Artur Araqelyan,Armenia,90,90,-190,190,195,,147.5,-152.5,152.5,,240,250,-255,,597.5,Amateur Open,Yes,M,SBD,Wraps,195,152.5,250,1986,
1,Aleksandr Ageenko,Ukraine,100,99.5,220,-230,230,,150,160,,,210,230,,,620,Amateur Open,Yes,M,SBD,Wraps,230,160,230,1976,
1,Sergiy Bessel,Ukraine,110,105.9,250,260,265,,175,180,-185,,255,270,275,,720,Amateur Open,Yes,M,SBD,Wraps,265,180,275,1984,
2,Konrad Czupryn,Poland,110,102.35,190,200,210,,135,140,-145,,235,242.5,-245,,592.5,Amateur Open,Yes,M,SBD,Wraps,210,140,242.5,1989,
3,Pavlo Kipnyak,Ukraine,110,110,200,210,,,150,-160,160,,200,220,,,590,Amateur Open,Yes,M,SBD,Wraps,210,160,220,1969,
4,Piotr Brzeziński,Poland,110,105.2,135,155,-170,,90,102.5,-112.5,,190,205,215,,472.5,Amateur Open,Yes,M,SBD,Wraps,155,102.5,215,1995,
1,Phillip Carr,USA,125,115.8,210,230,242.5,,165,175,-182.5,,235,255,-282.5,,672.5,Amateur Open,Yes,M,SBD,Wraps,242.5,175,255,1989,
2,Vasyl' Golivets',Ukraine,125,122.85,210,225,235,,170,182.5,185,,210,220,230,,650,Amateur Open,Yes,M,SBD,Wraps,235,185,230,1960,
3,Danylo Udovyk,Ukraine,125,117.25,205,215,222.5,,135,137.5,-140,,212.5,222.5,227.5,,587.5,Amateur Open,Yes,M,SBD,Wraps,222.5,137.5,227.5,1992,
1,Oleksandr Kalkutin,Ukraine,140,133.75,230,250,,,160,-170,-170,,210,230,-240,,640,Amateur Open,Yes,M,SBD,Wraps,250,160,230,1965,
1,Terry Harcleroad,USA,140+,151.4,182.5,230,-240,,165,-175,-175,,-182.5,227.5,-237.5,,622.5,Amateur Open,Yes,M,SBD,Wraps,230,165,227.5,1965,
2,Oleg Brazhnyk,Ukraine,140+,158,160,180,200,,115,125,-132.5,,190,205,215,,540,Amateur Open,Yes,M,SBD,Wraps,200,125,215,1970,
1,Ruslan Kucheruk,Ukraine,75,74.3,130,142.5,150,,87.5,92.5,100,,145,160,175,,425,Amateur Submasters 33-39,Yes,M,SBD,Wraps,150,100,175,1984,
2,Vitalii Chornoguz,Ukraine,75,75,102.5,120,-125,,82.5,87.5,95,,135,152.5,165,,380,Amateur Submasters 33-39,Yes,M,SBD,Wraps,120,95,165,1982,
1,Seyran Simonyan,Armenia,82.5,81.75,80,100,120,,80,100,-110,,110,130,-140,,350,Amateur Submasters 33-39,Yes,M,SBD,Wraps,120,100,130,1983,
1,Oleksandr Avakumov,Ukraine,90,88.2,-240,240,250,,150,155,160,,245,255,265,,675,Amateur Submasters 33-39,Yes,M,SBD,Wraps,250,160,265,1983,
1,Garik Tovmasyan,Armenia,100,93,95,105,110,,95,-115,-115,,140,175,-200,,380,Amateur Submasters 33-39,Yes,M,SBD,Wraps,110,95,175,1982,
1,Volodymyr Bushtryuk,Ukraine,82.5,81.7,230,240,,,-145,145,-150,,190,200,-205,,585,Amateur Masters 40-44,Yes,M,SBD,Wraps,240,145,200,1976,
1,Vitaliy Meserenko,Ukraine,90,89.45,230,-245,245,,155,165,-170,,220,230,-237.5,,640,Amateur Masters 40-44,Yes,M,SBD,Wraps,245,165,230,1976,
2,Aleksandr Ageenko,Ukraine,100,99.5,220,-230,230,,150,160,,,210,230,,,620,Amateur Open,Yes,M,SBD,Wraps,230,160,230,1976,
3,Hayk Afyan,Armenia,100,95.6,-120,-120,120,,-90,90,110,,135,-150,155,,385,Amateur Open,Yes,M,SBD,Wraps,120,110,155,1978,
1,Roy Mubiru,Uganda,125,122.2,160,180,190,,130,140,-150,,190,210,225,,555,Amateur Open,Yes,M,SBD,Wraps,190,140,225,1977,
1,Marek Makarewicz,Poland,140,134.4,-290,290,315,,-215,225,-232.5,,-270,280,290,,830,Amateur Open,Yes,M,SBD,Wraps,315,225,290,1979,
1,Vadym Koverznev,Ukraine,75,74.3,120,125,-130,,105,110,-112.5,,140,145,,,380,Amateur Masters 45-49,Yes,M,SBD,Wraps,125,110,145,1970,
1,Sergii Shevchenko,Ukraine,90,89.3,165,172.5,175,,107.5,112.5,-117.5,,167.5,-175,-175,,455,Amateur Masters 45-49,Yes,M,SBD,Wraps,175,112.5,167.5,1973,
1,Oleg Bogdanov,Ukraine,100,97.85,180,200,-215,,140,150,-155,,170,185,200,,550,Amateur Masters 45-49,Yes,M,SBD,Wraps,200,150,200,1974,
1,Oleg Brazhnyk,Ukraine,140+,158,160,180,200,,115,125,-132.5,,190,205,215,,540,Amateur Masters 45-49,Yes,M,SBD,Wraps,200,125,215,1970,
1,Pavlo Kipnyak,Ukraine,110,110,200,210,,,150,-160,160,,200,220,,,590,Amateur Masters 50-54,Yes,M,SBD,Wraps,210,160,220,1969,
1,Gagik Saroyan,Armenia,125,125,80,100,,,80,100,,,100,,,,300,Amateur Masters 50-54,Yes,M,SBD,Wraps,100,100,100,1967,
1,Oleksandr Kalkutin,Ukraine,140,133.75,230,250,,,160,-170,-170,,210,230,-240,,640,Amateur Masters 50-54,Yes,M,SBD,Wraps,250,160,230,1965,
1,Terry Harcleroad,USA,140+,151.4,182.5,230,-240,,165,-175,-175,,-182.5,227.5,-237.5,,622.5,Amateur Masters 50-54,Yes,M,SBD,Wraps,230,165,227.5,1965,
1,Gennadii Petrenko,Ukraine,75,73.9,145,152.5,160,,75,80,-85,,180,195,-200,,435,Amateur Masters 55-59,Yes,M,SBD,Wraps,160,80,195,1959,
2,Andrii Garadzha,Ukraine,75,73.05,100,-110,110,,70,-75,-75,,120,130,140,,320,Amateur Masters 55-59,Yes,M,SBD,Wraps,110,70,140,1962,
1,Volodymyr Chepurnyy,Ukraine,82.5,81.35,190,-200,200,,95,100,105,,190,200,-210,,505,Amateur Masters 55-59,Yes,M,SBD,Wraps,200,105,200,1960,
1,Yurii Ishchenko,Ukraine,90,85.75,105,-115,115,,100,112.5,117.5,,135,145,150,,382.5,Amateur Open,Yes,M,SBD,Wraps,115,117.5,150,1963,
1,Igor Romasenko,Ukraine,100,94.6,160,170,180,,105,-110,-110,,-192.5,200,210,,495,Amateur Open,Yes,M,SBD,Wraps,180,105,210,1963,
1,Vasyl' Golivets',Ukraine,125,122.85,210,225,235,,170,182.5,185,,210,220,230,,650,Amateur Open,Yes,M,SBD,Wraps,235,185,230,1960,
1,Oleksandr Ostrovskyy,Ukraine,82.5,79.5,130,140,160,,80,90,95,,130,150,160,,415,Amateur Masters 65-69,Yes,M,SBD,Wraps,160,95,160,1953,
1,Mykola Yermakov,Ukraine,100,93.5,180,200,210,,100,110,115,,210,225,235,,560,Amateur Masters 65-69,Yes,M,SBD,Wraps,210,115,235,1954,
1,Oleksandr Gladkyh,Ukraine,75,72.9,70,80,90,,60,65,-70,,110,115,120,,275,Amateur Masters 70-74,Yes,M,SBD,Wraps,90,65,120,1946,
1,Yuriy Starkov,Ukraine,82.5,82.2,140,150,-155,,100,105,-110,,205,215,225,,480,Amateur Masters 70-74,Yes,M,SBD,Wraps,150,105,225,1947,
1,Stefan Sochaňski,Poland,100,90.5,155,162.5,170,,-87.5,87.5,,,175,192.5,-202.5,,450,Amateur Masters 70-74,Yes,M,SBD,Wraps,170,87.5,192.5,1948,
2,M Levy Robert,USA,100,100,-150,-150,150,,125,130,135,,150,165,-177.5,,450,Amateur Masters 70-74,Yes,M,SBD,Wraps,150,135,165,1948,
1,Viktor Stefanov,Ukraine,110,102.65,165,180,185,,95,-105,105,,160,170,,,460,Amateur Masters 70-74,Yes,M,SBD,Wraps,185,105,170,1948,
1,Stefan Sochaňski,Poland,100,90.5,155,162.5,170,,-87.5,87.5,,,175,192.5,-202.5,,450,Amateur Military/Fire/Police,Yes,M,SBD,Wraps,170,87.5,192.5,1948,
1,Phillip Carr,USA,125,115.8,210,230,242.5,,165,175,-182.5,,235,255,-282.5,,672.5,Amateur Military/Fire/Police,Yes,M,SBD,Wraps,242.5,175,255,1989,
1,Piotr Stefaniuk,Poland,67.5,66,120,132.5,137.5,,105,110,-115,,185,197.5,202.5,,450,Amateur Paralympian,Yes,M,SBD,Wraps,137.5,110,202.5,1991,
1,Eugeniia Senich,Ukraine,44,34.3,37.5,42.5,-45,,20,-22.5,,,42.5,47.5,50,,112.5,Amateur Youth 8,Yes,F,SBD,Wraps,42.5,20,50,2010,
1,Roksolana Busko,Ukraine,52,52,105,-112.5,-115,,52.5,55,57.5,,115,-120,,,277.5,Amateur Juniors 20-23,Yes,F,SBD,Wraps,105,57.5,115,1996,
1,Nadiya Osaenko,Ukraine,44,43.1,72.5,-77.5,77.5,,32.5,35,-37.5,,85,87.5,90,,202.5,Amateur Open,Yes,F,SBD,Wraps,77.5,35,90,1990,
2,Maryna Chornoguz,Ukraine,44,43.8,-67.5,72.5,75,,35,40,-42.5,,77.5,85,-90,,200,Amateur Open,Yes,F,SBD,Wraps,75,40,85,1988,
1,Roksolana Busko,Ukraine,52,52,105,-112.5,-115,,52.5,55,57.5,,115,-120,,,277.5,Amateur Open,Yes,F,SBD,Wraps,105,57.5,115,1996,
2,Tetiana Adamchuk,Ukraine,52,51.4,-77.5,-77.5,77.5,,-35,-35,35,,75,82.5,87.5,,200,Amateur Open,Yes,F,SBD,Wraps,77.5,35,87.5,1989,
DQ,Yulia Pshezemyrska,Ukraine,52,51.6,-90,92.5,-100,,-47.5,-47.5,-47.5,,-100,,,,,Amateur Open,Yes,F,SBD,Wraps,92.5,,,1982,
2,Yana Tkachenko,Ukraine,56,55.1,-110,115,-125,,52.5,57.5,-60,,112.5,120,-125,,292.5,Amateur Open,Yes,F,SBD,Wraps,115,57.5,120,1984,
3,Olga Martynyuk,Ukraine,56,56,100,105,-107.5,,47.5,52.5,-55,,107.5,115,125,,282.5,Amateur Open,Yes,F,SBD,Wraps,105,52.5,125,1991,
1,Daryna Prysyazhna,Ukraine,60,58,155,165,172.5,,80,-85,87.5,,127.5,135,142.5,150,402.5,Amateur Open,Yes,F,SBD,Wraps,172.5,87.5,142.5,1989,
2,Olena Ruban,Ukraine,60,59.7,115,-125,-125,,50,-55,-55,,-135,150,-160,,315,Amateur Open,Yes,F,SBD,Wraps,115,50,150,1992,
4,Yulia Animitsa,Ukraine,60,59.8,80,85,90,,55,-60,60,,100,110,115,,265,Amateur Open,Yes,F,SBD,Wraps,90,60,115,1993,
1,Katerina Bessel,Ukraine,67.5,66.8,135,142.5,-147.5,,75,80,-82.5,,130,137.5,140,,362.5,Amateur Open,Yes,F,SBD,Wraps,142.5,80,140,1991,
2,Iryna Gubenko,Ukraine,67.5,66.05,-120,-120,120,,65,70,-72.5,,125,132.5,-140,,322.5,Amateur Open,Yes,F,SBD,Wraps,120,70,132.5,1987,
3,Ganna Mazykina,Ukraine,67.5,63.6,80,87.5,-95,,52.5,57.5,-62.5,,100,112.5,120,,265,Amateur Open,Yes,F,SBD,Wraps,87.5,57.5,120,1990,
1,Kate Carr,USA,75,74,95,97.5,102.5,,40,42.5,-47.5,,125,140,142.5,,287.5,Amateur Open,Yes,F,SBD,Wraps,102.5,42.5,142.5,1990,
2,Diana Korobova,Ukraine,75,67.6,100,-110,110,,55,60,65,,100,110,-115,,285,Amateur Open,Yes,F,SBD,Wraps,110,65,110,1994,
1,Ewa Dzwonkowska,Poland,100,94.15,-115,115,-125,,35,42.5,-47.5,,120,130,135,,292.5,Amateur Open,Yes,F,SBD,Wraps,115,42.5,135,1993,
1,Tetiana Dzherelyuk,Ukraine,56,56,90,97.5,105,,50,55,-57.5,,120,-130,-130,,280,Amateur Submasters 33-39,Yes,F,SBD,Wraps,105,55,120,1983,
1,Vita Rudakova,Ukraine,75,72.5,100,-112.5,112.5,,50,55,-57.5,,145,155,-162.5,,322.5,Amateur Submasters 33-39,Yes,F,SBD,Wraps,112.5,55,155,1980,
1,Beata Kowalska,Poland,75,69.85,115,120,122.5,,70,75,77.5,,142.5,152.5,155,,355,Amateur Masters 45-49,Yes,F,SBD,Wraps,122.5,77.5,155,1973,
1,Tetiana Kremenchutska,Ukraine,67.5,66.3,70,75,80,,50,55,-57.5,,105,115,125,,260,Amateur Masters 50-54,Yes,F,SBD,Wraps,80,55,125,1967,
1,Anzhelika Antonova,Ukraine,75,73.3,80,-90,-95,,57.5,60,65,,90,100,115,,260,Amateur Masters 50-54,Yes,F,SBD,Wraps,80,65,115,1969,
1,Svitlana Zhadan,Ukraine,48,48,-55,55,60,,-40,40,-42.5,,85,90,95,,195,Amateur Masters 55-59,Yes,F,SBD,Wraps,60,40,95,1964,
1,Oksana Azarenkova,Ukraine,67.5,62.3,37.5,42.5,-45,,27.5,32.5,-35,,75,85,92.5,,167.5,Amateur Masters 55-59,Yes,F,SBD,Wraps,42.5,32.5,92.5,1961,
1,Stefan Sochaňski,Poland,100,90.5,185,200,215,,-105,105,-112.5,,190,205,215,,535,Amateur Masters 70-74,Yes,M,SBD,Multi-ply,215,105,215,1948,
1,Stefan Sochaňski,Poland,100,90.5,185,200,215,,-105,105,-112.5,,190,205,215,,535,Amateur Military/Fire/Police,Yes,M,SBD,Multi-ply,215,105,215,1948,
1,Mykhailo Rymarchuk,Ukraine,44,41.55,,,,,30,-35,-35,,62.5,72.5,75,,105,Amateur Youth 9,Yes,M,BD,Raw,,30,75,2010,
1,Jivan Hovhannisyan,Armenia,56,56,,,,,65,70,-75,,125,140,-145,,210,Amateur Teen 13-15,Yes,M,BD,Raw,,70,140,2005,
1,Daniil Gromadetskii,Ukraine,82.5,82.3,,,,,90,95,-100,,140,150,-155,,245,Amateur Teen 13-15,Yes,M,BD,Raw,,95,150,2005,
1,Yuri Sakunts,Armenia,75,69.05,,,,,90,-102.5,-105,,160,180,-200,,270,Amateur Juniors 20-23,Yes,M,BD,Raw,,90,180,1996,
1,Stepan Savchuk,Ukraine,82.5,81.7,,,,,140,-150,-150,,245,262.5,-270,,402.5,Amateur Juniors 20-23,Yes,M,BD,Raw,,140,262.5,1996,
1,Dmytro Korostelyov,Ukraine,75,73.4,,,,,115,120,-125,,150,160,-170,,280,Amateur Open,Yes,M,BD,Raw,,120,160,1991,
1,Artur Araqelyan,Armenia,90,90,,,,,147.5,-152.5,152.5,,240,250,-255,,402.5,Amateur Open,Yes,M,BD,Raw,,152.5,250,1986,
2,Mikko Mäntymäki,Finland,90,88.1,,,,,140,-145,145,,240,250,-255,,395,Amateur Open,Yes,M,BD,Raw,,145,250,1971,
1,Aleksandr Ageenko,Ukraine,100,99.5,,,,,150,160,,,210,230,,,390,Amateur Open,Yes,M,BD,Raw,,160,230,1976,
1,Pavlo Kipnyak,Ukraine,110,110,,,,,150,-160,160,,200,220,,,380,Amateur Open,Yes,M,BD,Raw,,160,220,1969,
1,Phillip Carr,USA,125,115.8,,,,,165,175,-182.5,,235,255,-282.5,,430,Amateur Open,Yes,M,BD,Raw,,175,255,1989,
2,Vladislav Marchenko,Ukraine,125,124,,,,,165,-172.5,-172.5,,200,220,230,,395,Amateur Open,Yes,M,BD,Raw,,165,230,1967,
3,Oleksandr Tolmachov,Ukraine,125,124.3,,,,,120,125,-130,,180,190,-200,,315,Amateur Open,Yes,M,BD,Raw,,125,190,1974,
1,Oleksandr Kalkutin,Ukraine,140,133.75,,,,,160,-170,-170,,210,230,-240,,390,Amateur Open,Yes,M,BD,Raw,,160,230,1965,
1,Oleg Brazhnyk,Ukraine,140+,158,,,,,115,125,-132.5,,190,205,215,,340,Amateur Open,Yes,M,BD,Raw,,125,215,1970,
1,Elnur Balahasanzada,Azerbaijan,90,90,,,,,130,140,-150,,230,240,-245,,380,Amateur Submasters 33-39,Yes,M,BD,Raw,,140,240,1994,
1,Can Yeşilpinar,Turkey,125,112.85,,,,,180,190,195,,240,250,,,445,Amateur Submasters 33-39,Yes,M,BD,Raw,,195,250,1983,
1,Aleksandr Ageenko,Ukraine,100,99.5,,,,,150,160,,,210,230,,,390,Amateur Masters 40-44,Yes,M,BD,Raw,,160,230,1976,
1,Oleksandr Tolmachov,Ukraine,125,124.3,,,,,120,125,-130,,180,190,-200,,315,Amateur Masters 40-44,Yes,M,BD,Raw,,125,190,1974,
1,Valentyn Slutskyy,Ukraine,110,103.9,,,,,150,157.5,-162.5,,200,207.5,-210,,365,Amateur Masters 45-49,Yes,M,BD,Raw,,157.5,207.5,1973,
1,Oleg Brazhnyk,Ukraine,140+,158,,,,,115,125,-132.5,,190,205,215,,340,Amateur Masters 45-49,Yes,M,BD,Raw,,125,215,1970,
1,Viacheslav Bulgakov,Ukraine,82.5,78.7,,,,,125,130,135,,160,180,-190,,315,Amateur Masters 50-54,Yes,M,BD,Raw,,135,180,1966,
1,Pavlo Kipnyak,Ukraine,110,110,,,,,150,-160,160,,200,220,,,380,Amateur Masters 50-54,Yes,M,BD,Raw,,160,220,1969,
1,Vladislav Marchenko,Ukraine,125,124,,,,,165,-172.5,-172.5,,200,220,230,,395,Amateur Masters 50-54,Yes,M,BD,Raw,,165,230,1967,
1,Oleksandr Kalkutin,Ukraine,140,133.75,,,,,160,-170,-170,,210,230,-240,,390,Amateur Masters 50-54,Yes,M,BD,Raw,,160,230,1965,
1,Terry Harcleroad,USA,140+,151.4,,,,,165,-175,-175,,-182.5,227.5,-237.5,,392.5,Amateur Masters 50-54,Yes,M,BD,Raw,,165,227.5,1965,
1,Andrii Garadzha,Ukraine,75,73.05,,,,,70,-75,-75,,120,130,140,,210,Amateur Masters 55-59,Yes,M,BD,Raw,,70,140,1962,
1,Yurii Ishchenko,Ukraine,90,85.75,,,,,100,112.5,117.5,,135,145,150,,267.5,Amateur Masters 55-59,Yes,M,BD,Raw,,117.5,150,1963,
1,Viktor Stefanov,Ukraine,110,102.65,,,,,95,-105,105,,160,170,,,275,Amateur Masters 70-74,Yes,M,BD,Raw,,105,170,1948,
1,Phillip Carr,USA,125,115.8,,,,,165,175,-182.5,,235,255,-282.5,,430,Amateur Military/Fire/Police,Yes,M,BD,Raw,,175,255,1989,
1,Ganna Mazykina,Ukraine,67.5,63.6,,,,,52.5,57.5,-62.5,,100,112.5,120,,177.5,Amateur Open,Yes,F,BD,Raw,,57.5,120,1990,
1,Mykhailo Rymarchuk,Ukraine,44,41.55,,,,,30,-35,-35,,,,,,30,Amateur Youth 9,Yes,M,B,Raw,,30,,2010,
1,Vahe Budaxyan,Armenia,44,39.9,,,,,30,35,-37.5,,,,,,35,Amateur Sub-Teen 11-12,Yes,M,B,Raw,,35,,2006,
1,Khoren Harutyunyan,Armenia,44,40.7,,,,,40,45,-50,,,,,,45,Amateur Teen 13-15,Yes,M,B,Raw,,45,,2006,
1,Tymur Lysenko,Ukraine,48,45.85,,,,,30,35,37.5,,,,,,37.5,Amateur Teen 13-15,Yes,M,B,Raw,,37.5,,2005,
1,Oleg Mykhalskyy,Ukraine,52,49.3,,,,,67.5,-72.5,-72.5,,,,,,67.5,Amateur Teen 13-15,Yes,M,B,Raw,,67.5,,2004,
1,Artur Arakelyan,Armenia,60,59.5,,,,,100,105,-110,,,,,,105,Amateur Teen 13-15,Yes,M,B,Raw,,105,,2003,
1,Dmytro Melnyk,Ukraine,67.5,67.3,,,,,105,110,112.5,,,,,,112.5,Amateur Teen 13-15,Yes,M,B,Raw,,112.5,,2003,
2,Karol Kwiatkowski,Poland,67.5,65.95,,,,,-95,-95,95,,,,,,95,Amateur Teen 13-15,Yes,M,B,Raw,,95,,2003,
1,Daniil Gromadetskii,Ukraine,82.5,82.3,,,,,90,95,-100,,,,,,95,Amateur Teen 13-15,Yes,M,B,Raw,,95,,2005,
1,Maksym Bugir,Ukraine,100,90.8,,,,,97.5,102.5,105,,,,,,105,Amateur Teen 13-15,Yes,M,B,Raw,,105,,2005,
1,Volodymyr Nametchenyuk,Ukraine,52,51.25,,,,,85,93,100,,,,,,100,Amateur Teen 16-17,Yes,M,B,Raw,,100,,2002,
1,Jonik Yesayan,Armenia,75,68.4,,,,,112.5,120,125,,,,,,125,Amateur Teen 16-17,Yes,M,B,Raw,,125,,2002,
2,Aram Gabrielyan,Armenia,75,68.6,,,,,110,120,-125,,,,,,120,Amateur Teen 16-17,Yes,M,B,Raw,,120,,2001,
1,Yurii Nych,Ukraine,82.5,77.5,,,,,117.5,-122.5,-122.5,,,,,,117.5,Amateur Teen 16-17,Yes,M,B,Raw,,117.5,,2003,
1,Gennadii Donchenko,Ukraine,67.5,63.8,,,,,122.5,-127.5,-127.5,,,,,,122.5,Amateur Teen 18-19,Yes,M,B,Raw,,122.5,,2001,
1,Petro Kalynovskyy,Ukraine,67.5,67.05,,,,,125,135,-145,,,,,,135,Amateur Juniors 20-23,Yes,M,B,Raw,,135,,1996,
1,Vasyl Kovalchuk,Ukraine,75,75,,,,,150,-157.5,-157.5,,,,,,150,Amateur Juniors 20-23,Yes,M,B,Raw,,150,,1999,
1,Oleg Balabash,Ukraine,82.5,79.8,,,,,135,140,-145,,,,,,140,Amateur Juniors 20-23,Yes,M,B,Raw,,140,,1997,
2,Borys Gulita,Ukraine,82.5,81.5,,,,,130,140,-145,,,,,,140,Amateur Juniors 20-23,Yes,M,B,Raw,,140,,1998,
3,Basoren Bahadir,Turkey,82.5,79.3,,,,,-115,-115,115,,,,,,115,Amateur Juniors 20-23,Yes,M,B,Raw,,115,,1997,
1,Kamil Kowalski,Poland,100,99.3,,,,,155,165,-167.5,,,,,,165,Amateur Juniors 20-23,Yes,M,B,Raw,,165,,1998,
1,Piotr Sadowski #2,Poland,110,108.2,,,,,180,190,-195,,,,,,190,Amateur Juniors 20-23,Yes,M,B,Raw,,190,,1996,
2,Piotr Brzeziński,Poland,110,105.2,,,,,90,102.5,-112.5,,,,,,102.5,Amateur Juniors 20-23,Yes,M,B,Raw,,102.5,,1995,
1,Sİnan Akalin,Turkey,125,117.2,,,,,170,180,-195,,,,,,180,Amateur Juniors 20-23,Yes,M,B,Raw,,180,,1996,
DQ,Rafał Suskiewicz,Poland,125,120.8,,,,,-135,-135,-135,,,,,,,Amateur Juniors 20-23,Yes,M,B,Raw,,,,1995,
2,Gennadii Donchenko,Ukraine,67.5,63.8,,,,,122.5,-127.5,-127.5,,,,,,122.5,Amateur Open,Yes,M,B,Raw,,122.5,,2001,
1,Artyom Soloyan,Armenia,75,74.2,,,,,145,155,160,,,,,,160,Amateur Open,Yes,M,B,Raw,,160,,1986,
2,Ivan Pelinkevych,Ukraine,75,74.3,,,,,125,132.5,137.5,,,,,,137.5,Amateur Open,Yes,M,B,Raw,,137.5,,1990,
3,Nestor Vasylyuk,Ukraine,75,74.6,,,,,125,132.5,137.5,,,,,,137.5,Amateur Open,Yes,M,B,Raw,,137.5,,1993,
4,Dmytro Korostelyov,Ukraine,75,73.4,,,,,120,125,127.5,,,,,,127.5,Amateur Open,Yes,M,B,Raw,,127.5,,1991,
1,Görkem Öztürk,Turkey,82.5,81.4,,,,,140,150,-152.5,,,,,,150,Amateur Open,Yes,M,B,Raw,,150,,1990,
2,Omer Kayisoglu,Turkey,82.5,75.4,,,,,140,147.5,-150,,,,,,147.5,Amateur Open,Yes,M,B,Raw,,147.5,,1993,
3,Kostiantyn Kurtsev,Ukraine,82.5,81.8,,,,,140,-147.5,147.5,,,,,,147.5,Amateur Open,Yes,M,B,Raw,,147.5,,1985,
4,Valerii Onishchuk,Ukraine,82.5,81.1,,,,,110,117.5,125,,,,,,125,Amateur Open,Yes,M,B,Raw,,125,,1981,
5,Igor Podrygulia,Ukraine,82.5,81.9,,,,,110,117.5,122.5,,,,,,122.5,Amateur Open,Yes,M,B,Raw,,122.5,,1965,
1,Vitaliy Meserenko,Ukraine,90,89.45,,,,,155,165,-170,,,,,,165,Amateur Open,Yes,M,B,Raw,,165,,1976,
2,Oleksandr Avakumov,Ukraine,90,88.2,,,,,150,155,160,,,,,,160,Amateur Open,Yes,M,B,Raw,,160,,1983,
3,Akaki Jguburia,Georgia,90,88.9,,,,,150,160,-170,,,,,,160,Amateur Open,Yes,M,B,Raw,,160,,1988,
4,Oleksadnr Nikulin,Ukraine,90,87.8,,,,,155,-162.5,-162.5,,,,,,155,Amateur Open,Yes,M,B,Raw,,155,,1983,
5,Mikko Mäntymäki,Finland,90,88.1,,,,,140,-145,145,,,,,,145,Amateur Open,Yes,M,B,Raw,,145,,1971,
6,Yuriy Filonenko,Ukraine,90,89.4,,,,,120,125,130,,,,,,130,Amateur Open,Yes,M,B,Raw,,130,,1954,
1,Viacheslav Teliura,Ukraine,100,99.15,,,,,180,187.5,-190,,,,,,187.5,Amateur Open,Yes,M,B,Raw,,187.5,,1967,
2,Evgen Fylyma,Ukraine,100,100,,,,,170,177.5,182.5,,,,,,182.5,Amateur Open,Yes,M,B,Raw,,182.5,,1990,
3,Mykola Gorbachov,Ukraine,100,92.75,,,,,165,170,-175,,,,,,170,Amateur Open,Yes,M,B,Raw,,170,,1962,
4,Kamil Wiśniewski,Poland,100,95.3,,,,,165,-175,-175,,,,,,165,Amateur Open,Yes,M,B,Raw,,165,,1991,
5,Aleksandr Ageenko,Ukraine,100,99.5,,,,,150,160,,,,,,,160,Amateur Open,Yes,M,B,Raw,,160,,1976,
1,Volodymyr Kukhar,Ukraine,110,110,,,,,175,-182.5,-182.5,,,,,,175,Amateur Open,Yes,M,B,Raw,,175,,1985,
2,Pavlo Kipnyak,Ukraine,110,110,,,,,150,-160,160,,,,,,160,Amateur Open,Yes,M,B,Raw,,160,,1969,
1,Łukasz Dalewski,Poland,125,123.55,,,,,165,175,186,187.5,,,,,186,Amateur Open,Yes,M,B,Raw,,186,,1982,
2,Vasyl' Golivets',Ukraine,125,122.85,,,,,170,182.5,185,,,,,,185,Amateur Open,Yes,M,B,Raw,,185,,1960,
3,Phillip Carr,USA,125,115.8,,,,,165,175,-182.5,,,,,,175,Amateur Open,Yes,M,B,Raw,,175,,1989,
4,Dmytro Sarkits,Ukraine,125,111.5,,,,,165,-170,,,,,,,165,Amateur Open,Yes,M,B,Raw,,165,,1974,
5,Vladislav Marchenko,Ukraine,125,124,,,,,165,-172.5,-172.5,,,,,,165,Amateur Open,Yes,M,B,Raw,,165,,1967,
6,Oleksandr Tolmachov,Ukraine,125,124.3,,,,,120,125,-130,,,,,,125,Amateur Open,Yes,M,B,Raw,,125,,1974,
1,Oleksandr Kalkutin,Ukraine,140,133.75,,,,,160,-170,-170,,,,,,160,Amateur Open,Yes,M,B,Raw,,160,,1965,
1,Gurhan Gurler,Turkey,140+,159.13,,,,,180,190,-200,,,,,,190,Amateur Open,Yes,M,B,Raw,,190,,1983,
2,Oleg Brazhnyk,Ukraine,140+,158,,,,,115,125,-132.5,,,,,,125,Amateur Open,Yes,M,B,Raw,,125,,1970,
1,Kostiantyn Kurtsev,Ukraine,82.5,81.8,,,,,140,-147.5,147.5,,,,,,147.5,Amateur Open,Yes,M,B,Raw,,147.5,,1985,
2,Valerii Onishchuk,Ukraine,82.5,81.1,,,,,110,117.5,125,,,,,,125,Amateur Open,Yes,M,B,Raw,,125,,1981,
1,Oleksadnr Nikulin,Ukraine,90,87.8,,,,,155,-162.5,-162.5,,,,,,155,Amateur Open,Yes,M,B,Raw,,155,,1983,
2,Elnur Balahasanzada,Azerbaijan,90,90,,,,,130,140,-150,,,,,,140,Amateur Open,Yes,M,B,Raw,,140,,1994,
1,Evren Temel,Turkey,100,95.8,,,,,157.5,167.5,180,,,,,,180,Amateur Open,Yes,M,B,Raw,,180,,1982,
2,Ivan Zeel,Ukraine,100,96.8,,,,,167.5,175,-182.5,,,,,,175,Amateur Open,Yes,M,B,Raw,,175,,1984,
3,Karen Martirosyan,Armenia,100,97.7,,,,,160,165,170,,,,,,170,Amateur Open,Yes,M,B,Raw,,170,,1982,
1,Oktay Akay,Turkey,110,104.4,,,,,150,160,-165,,,,,,160,Amateur Open,Yes,M,B,Raw,,160,,1981,
1,Can Yeşilpinar,Turkey,125,112.85,,,,,180,190,195,,,,,,195,Amateur Open,Yes,M,B,Raw,,195,,1983,
2,Łukasz Dalewski,Poland,125,123.55,,,,,165,175,186,187.5,,,,,186,Amateur Open,Yes,M,B,Raw,,186,,1982,
1,Gurhan Gurler,Turkey,140+,159.13,,,,,180,190,-200,,,,,,190,Amateur Open,Yes,M,B,Raw,,190,,1983,
1,Igor Trofymchuk,Ukraine,67.5,67.4,,,,,125,132.5,-137.5,,,,,,132.5,Amateur Masters 40-44,Yes,M,B,Raw,,132.5,,1978,
1,Vitaliy Meserenko,Ukraine,90,89.45,,,,,155,165,-170,,,,,,165,Amateur Masters 40-44,Yes,M,B,Raw,,165,,1976,
2,Viacheslav Bevzyuk,Ukraine,90,88.7,,,,,142.5,147.5,152.5,,,,,,152.5,Amateur Masters 40-44,Yes,M,B,Raw,,152.5,,1975,
1,Andrii Petruk,Ukraine,100,97.25,,,,,190,200,-202.5,,,,,,200,Amateur Masters 40-44,Yes,M,B,Raw,,200,,1975,
2,Aleksandr Ageenko,Ukraine,100,99.5,,,,,150,160,,,,,,,160,Amateur Masters 40-44,Yes,M,B,Raw,,160,,1976,
3,Hayk Afyan,Armenia,100,95.6,,,,,-90,90,110,,,,,,110,Amateur Masters 40-44,Yes,M,B,Raw,,110,,1978,
1,Artem Sokolov,Ukraine,110,107.85,,,,,160,-167.5,-167.5,,,,,,160,Amateur Masters 40-44,Yes,M,B,Raw,,160,,1976,
2,Viktor Bozhukha,Ukraine,110,108.45,,,,,150,-160,-162.5,,,,,,150,Amateur Masters 40-44,Yes,M,B,Raw,,150,,1978,
3,Anton Lysenko #1,Ukraine,110,103.5,,,,,122.5,127.5,132.5,,,,,,132.5,Amateur Masters 40-44,Yes,M,B,Raw,,132.5,,1979,
2,Dmytro Sarkits,Ukraine,125,111.5,,,,,165,-170,,,,,,,165,Amateur Open,Yes,M,B,Raw,,165,,1974,
3,Oleksandr Tolmachov,Ukraine,125,124.3,,,,,120,125,-130,,,,,,125,Amateur Open,Yes,M,B,Raw,,125,,1974,
1,Marek Makarewicz,Poland,140,134.4,,,,,-215,225,-232.5,,,,,,225,Amateur Open,Yes,M,B,Raw,,225,,1979,
1,Igor Yepishev,Ukraine,75,74.25,,,,,-140,145,-150,,,,,,145,Amateur Masters 45-49,Yes,M,B,Raw,,145,,1969,
1,Valentyn Chervoniashchyy,Ukraine,82.5,76,,,,,115,120,-125,,,,,,120,Amateur Masters 45-49,Yes,M,B,Raw,,120,,1970,
1,Anatolii Gulita,Ukraine,90,88.9,,,,,140,150,-157.5,,,,,,150,Amateur Masters 45-49,Yes,M,B,Raw,,150,,1979,
1,Oleg Bogdanov,Ukraine,100,97.85,,,,,140,150,-155,,,,,,150,Amateur Masters 45-49,Yes,M,B,Raw,,150,,1974,
1,Valentyn Slutskyy,Ukraine,110,103.9,,,,,150,157.5,-162.5,,,,,,157.5,Amateur Masters 45-49,Yes,M,B,Raw,,157.5,,1973,
2,Viktor Buyanoskyy,Ukraine,110,106,,,,,115,122.5,-127.5,,,,,,122.5,Amateur Masters 45-49,Yes,M,B,Raw,,122.5,,1969,
1,Oleg Brazhnyk,Ukraine,140+,158,,,,,115,125,-132.5,,,,,,125,Amateur Masters 45-49,Yes,M,B,Raw,,125,,1970,
1,Igor Chumak,Ukraine,75,70.05,,,,,100,110,-117.5,,,,,,110,Amateur Masters 50-54,Yes,M,B,Raw,,110,,1965,
1,Viacheslav Bulgakov,Ukraine,82.5,78.7,,,,,125,130,135,,,,,,135,Amateur Masters 50-54,Yes,M,B,Raw,,135,,1966,
2,Igor Podrygulia,Ukraine,82.5,81.9,,,,,110,117.5,122.5,,,,,,122.5,Amateur Masters 50-54,Yes,M,B,Raw,,122.5,,1965,
1,Viacheslav Teliura,Ukraine,100,99.15,,,,,180,187.5,-190,,,,,,187.5,Amateur Masters 50-54,Yes,M,B,Raw,,187.5,,1967,
1,Pavlo Kipnyak,Ukraine,110,110,,,,,150,-160,160,,,,,,160,Amateur Masters 50-54,Yes,M,B,Raw,,160,,1969,
1,Vladislav Marchenko,Ukraine,125,124,,,,,165,-172.5,-172.5,,,,,,165,Amateur Masters 50-54,Yes,M,B,Raw,,165,,1967,
2,Anatolii Khomyuk,Ukraine,125,113.7,,,,,135,150,-155,,,,,,150,Amateur Masters 50-54,Yes,M,B,Raw,,150,,1968,
1,Oleksandr Kalkutin,Ukraine,140,133.75,,,,,160,-170,-170,,,,,,160,Amateur Masters 50-54,Yes,M,B,Raw,,160,,1965,
1,Terry Harcleroad,USA,140+,151.4,,,,,165,-175,-175,,,,,,165,Amateur Masters 50-54,Yes,M,B,Raw,,165,,1965,
1,Petro Prystupa,Ukraine,75,74.65,,,,,100,107.5,-112.5,,,,,,107.5,Amateur Masters 55-59,Yes,M,B,Raw,,107.5,,1963,
2,Andrii Garadzha,Ukraine,75,73.05,,,,,70,-75,-75,,,,,,70,Amateur Masters 55-59,Yes,M,B,Raw,,70,,1962,
1,Yurii Ishchenko,Ukraine,90,85.75,,,,,100,112.5,117.5,,,,,,117.5,Amateur Masters 55-59,Yes,M,B,Raw,,117.5,,1963,
2,Sergii Pilipenko,Ukraine,90,84.6,,,,,115,-120,-120,,,,,,115,Amateur Masters 55-59,Yes,M,B,Raw,,115,,1963,
1,Mykola Gorbachov,Ukraine,100,92.75,,,,,165,170,-175,,,,,,170,Amateur Masters 55-59,Yes,M,B,Raw,,170,,1962,
1,Vasyl' Golivets',Ukraine,125,122.85,,,,,170,182.5,185,,,,,,185,Amateur Masters 55-59,Yes,M,B,Raw,,185,,1960,
1,Piotr Redzik,Poland,125,121.3,,,,,125,135,140,,,,,,140,Amateur Open,Yes,M,B,Raw,,140,,1957,
1,Antoni Kaliňski,Poland,67.5,67.3,,,,,95,102.5,107.5,,,,,,107.5,Amateur Masters 65-69,Yes,M,B,Raw,,107.5,,1953,
1,Jan Łuka,Poland,82.5,81.9,,,,,90,100,-105,,,,,,100,Amateur Masters 65-69,Yes,M,B,Raw,,100,,1949,
1,Yuriy Filonenko,Ukraine,90,89.4,,,,,120,125,130,,,,,,130,Amateur Masters 65-69,Yes,M,B,Raw,,130,,1954,
1,Volodymyr Batura,Ukraine,110,110,,,,,90,95,-100,,,,,,95,Amateur Masters 65-69,Yes,M,B,Raw,,95,,1950,
1,Volodymyr Lebedev #1,Ukraine,125,114.8,,,,,125,140,148,,,,,,148,Amateur Masters 65-69,Yes,M,B,Raw,,148,,1950,
1,M Levy Robert,USA,100,100,,,,,125,130,135,,,,,,135,Amateur Masters 70-74,Yes,M,B,Raw,,135,,1948,
1,Volodymyr Korshunov,Ukraine,100,94.4,,,,,130,137.5,140,,,,,,140,Amateur Masters 75-79,Yes,M,B,Raw,,140,,1942,
1,Görkem Öztürk,Turkey,82.5,81.4,,,,,140,150,-152.5,,,,,,150,Amateur Military/Fire/Police,Yes,M,B,Raw,,150,,1990,
1,Oleksandr Ploskyy,Ukraine,90,88.5,,,,,145,150,-152.5,,,,,,150,Amateur Military/Fire/Police,Yes,M,B,Raw,,150,,1974,
1,Evren Temel,Turkey,100,95.8,,,,,157.5,167.5,180,,,,,,180,Amateur Military/Fire/Police,Yes,M,B,Raw,,180,,1982,
1,Oktay Akay,Turkey,110,104.4,,,,,150,160,-165,,,,,,160,Amateur Military/Fire/Police,Yes,M,B,Raw,,160,,1981,
1,Phillip Carr,USA,125,115.8,,,,,165,175,-182.5,,,,,,175,Amateur Military/Fire/Police,Yes,M,B,Raw,,175,,1989,
1,Gevorg Afrikyan,Armenia,60,60,,,,,70,-86,-86,,,,,,70,Amateur Paralympian,Yes,M,B,Raw,,70,,1999,
1,Piotr Stefaniuk,Poland,67.5,66,,,,,105,110,-115,,,,,,110,Amateur Paralympian,Yes,M,B,Raw,,110,,1991,
1,Veronika Korolyova,Ukraine,48,46.1,,,,,40,45,-50,,,,,,45,Amateur Teen 13-15,Yes,F,B,Raw,,45,,2006,
1,Orina Borovkova,Ukraine,56,54.55,,,,,65,-70,-70,,,,,,65,Amateur Teen 16-17,Yes,F,B,Raw,,65,,2002,
1,Nataliya Melnychuk,Ukraine,56,53.5,,,,,70,72.5,75,,,,,,75,Amateur Open,Yes,F,B,Raw,,75,,1975,
2,Alina Klodchyk,Ukraine,56,55.45,,,,,-52.5,52.5,-60,,,,,,52.5,Amateur Open,Yes,F,B,Raw,,52.5,,1994,
1,Viktoriia Kurchyn,Ukraine,60,58.1,,,,,65,70,-75,,,,,,70,Amateur Open,Yes,F,B,Raw,,70,,1985,
2,Olena Ruban,Ukraine,60,59.7,,,,,50,-55,-55,,,,,,50,Amateur Open,Yes,F,B,Raw,,50,,1992,
1,Ganna Mazykina,Ukraine,67.5,63.6,,,,,52.5,57.5,-62.5,,,,,,57.5,Amateur Open,Yes,F,B,Raw,,57.5,,1990,
1,Viktoriia Kurchyn,Ukraine,60,58.1,,,,,65,70,-75,,,,,,70,Amateur Submasters 33-39,Yes,F,B,Raw,,70,,1985,
1,Nataliya Melnychuk,Ukraine,56,53.5,,,,,70,72.5,75,,,,,,75,Amateur Masters 40-44,Yes,F,B,Raw,,75,,1975,
1,Oksana Muzyka,Ukraine,67.5,67.35,,,,,62.5,-67.5,-67.5,,,,,,62.5,Amateur Masters 45-49,Yes,F,B,Raw,,62.5,,1969,
1,Kamli Wisniewski,Poland,100,95.3,,,,,220,-230,230,,,,,,230,Amateur Open,Yes,M,B,Multi-ply,,230,,1991,
2,Artem Garanzha,Ukraine,100,100,,,,,190,200,,,,,,,200,Amateur Open,Yes,M,B,Multi-ply,,200,,1986,
1,Rudolf Siska,Slovakia,90,88.6,,,,,185,206,-211,,,,,,206,Amateur Masters 45-49,Yes,M,B,Multi-ply,,206,,1971,
1,Boris Švirec,Slovakia,125,115.8,,,,,190,-200,-200,,,,,,190,Amateur Masters 55-59,Yes,M,B,Multi-ply,,190,,1964,
1,Mykhailo Rymarchuk,Ukraine,44,41.55,,,,,,,,,62.5,72.5,75,,75,Amateur Youth 9,Yes,M,D,Raw,,,75,2010,
1,Mesrop Hovsepyan,Armenia,44,38.1,,,,,,,,,90,-97.5,97.5,,97.5,Amateur Sub-Teen 11-12,Yes,M,D,Raw,,,97.5,2007,
2,Tigran Matevosyan,Armenia,44,32.75,,,,,,,,,90,-100,-100,,90,Amateur Sub-Teen 11-12,Yes,M,D,Raw,,,90,2007,
3,Vahe Budaxyan,Armenia,44,39.9,,,,,,,,,90,-102.5,-102.5,,90,Amateur Sub-Teen 11-12,Yes,M,D,Raw,,,90,2006,
1,Albert Dadikyan,Armenia,60,60,,,,,,,,,160,175,-190,,175,Amateur Teen 13-15,Yes,M,D,Raw,,,175,2003,
1,Hovhannes Antonyan,Armenia,67.5,61.7,,,,,,,,,100,110,-115,,110,Amateur Teen 13-15,Yes,M,D,Raw,,,110,2006,
1,Daniil Gromadetskii,Ukraine,82.5,82.3,,,,,,,,,140,150,-155,,150,Amateur Teen 13-15,Yes,M,D,Raw,,,150,2005,
1,Samvel Harutyunyan,Armenia,60,59.1,,,,,,,,,130,140,-150,,140,Amateur Teen 16-17,Yes,M,D,Raw,,,140,2003,
1,Erik Khachatryan,Armenia,67.5,63.9,,,,,,,,,155,165,177.5,,177.5,Amateur Teen 16-17,Yes,M,D,Raw,,,177.5,2002,
1,Maksym Rudyy,Ukraine,75,75,,,,,,,,,-220,220,256,,256,Amateur Teen 16-17,Yes,M,D,Raw,,,256,2002,
2,Arshak Hayrapetyan,Armenia,75,73.45,,,,,,,,,180,-200,-207.5,,180,Amateur Teen 16-17,Yes,M,D,Raw,,,180,2002,
3,Davit Babakyokhvyan,Armenia,75,74.95,,,,,,,,,160,170,-182.5,,170,Amateur Teen 16-17,Yes,M,D,Raw,,,170,2003,
4,Artem Mamenko,Ukraine,75,73.7,,,,,,,,,150,-160,160,,160,Amateur Teen 16-17,Yes,M,D,Raw,,,160,2003,
1,Garnik Babakyokhvyan,Armenia,82.5,81.2,,,,,,,,,180,200,205,,205,Amateur Teen 16-17,Yes,M,D,Raw,,,205,2001,
2,Igor Bigun,Ukraine,82.5,80.9,,,,,,,,,145,155,162.5,,162.5,Amateur Teen 16-17,Yes,M,D,Raw,,,162.5,2002,
1,Yaroslav Gaviada,Ukraine,100,99.5,,,,,,,,,240,250,260,,260,Amateur Teen 16-17,Yes,M,D,Raw,,,260,2003,
DQ,Yusuf Demir Berke,Turkey,125,125,,,,,,,,,-210,-210,-210,,,Amateur Teen 16-17,Yes,M,D,Raw,,,,2001,
1,Igor Starchenko,Ukraine,82.5,80.7,,,,,,,,,175,190,-202.5,,190,Amateur Teen 18-19,Yes,M,D,Raw,,,190,2001,
1,Hakob Ghazaryan,Armenia,67.5,67.5,,,,,,,,,70,80,100,,100,Amateur Open,Yes,M,D,Raw,,,100,1996,
1,Dmytro Valchevskyy,Ukraine,75,73.45,,,,,,,,,200,-222.5,-222.5,,200,Amateur Open,Yes,M,D,Raw,,,200,1998,
2,Yuri Sakunts,Armenia,75,69.05,,,,,,,,,160,180,-200,,180,Amateur Open,Yes,M,D,Raw,,,180,1996,
1,Ivan Yarmolyuk #1,Ukraine,82.5,79.75,,,,,,,,,210,232.5,237.5,,237.5,Amateur Open,Yes,M,D,Raw,,,237.5,1998,
2,Vasyl Pavlyshak,Ukraine,82.5,77.2,,,,,,,,,195,202.5,205,,205,Amateur Open,Yes,M,D,Raw,,,205,1997,
1,Dmytro Nestrachuk,Ukraine,90,87.9,,,,,,,,,190,200,-210,,200,Amateur Open,Yes,M,D,Raw,,,200,1995,
1,Piotr Sadowski #2,Poland,110,108.2,,,,,,,,,310,320,,,320,Amateur Open,Yes,M,D,Raw,,,320,1996,
1,Valerii Popovych,Ukraine,60,57.75,,,,,,,,,160,170,177.5,,177.5,Amateur Open,Yes,M,D,Raw,,,177.5,1994,
2,Aleksandr Avetisyan,Armenia,60,59.6,,,,,,,,,140,150,-180,,150,Amateur Open,Yes,M,D,Raw,,,150,1988,
1,Dmytro Valchevskyy,Ukraine,75,73.45,,,,,,,,,200,-222.5,-222.5,,200,Amateur Open,Yes,M,D,Raw,,,200,1998,
2,Dmytro Korostelyov,Ukraine,75,73.4,,,,,,,,,150,160,-170,,160,Amateur Open,Yes,M,D,Raw,,,160,1991,
1,Francesco LoPorto,Italy,82.5,79.3,,,,,,,,,255,265,270,275,270,Amateur Open,Yes,M,D,Raw,,,270,1980,
2,Bogdan Pavlyshak,Ukraine,82.5,75.2,,,,,,,,,210,220,225,,225,Amateur Open,Yes,M,D,Raw,,,225,1995,
1,Stefano Nieddu,Italy,90,88.75,,,,,,,,,265,282.5,-300,,282.5,Amateur Open,Yes,M,D,Raw,,,282.5,1992,
3,Mikko Mäntymäki,Finland,90,88.1,,,,,,,,,240,250,-255,,250,Amateur Open,Yes,M,D,Raw,,,250,1971,
4,Artur Araqelyan,Armenia,90,90,,,,,,,,,240,250,-255,,250,Amateur Open,Yes,M,D,Raw,,,250,1986,
1,Aleksandr Ageenko,Ukraine,100,99.5,,,,,,,,,210,230,,,230,Amateur Open,Yes,M,D,Raw,,,230,1976,
2,Vadym Omelchuk,Ukraine,100,99.35,,,,,,,,,170,185,195,,195,Amateur Open,Yes,M,D,Raw,,,195,1989,
1,Michał Szaszkowski,Poland,110,100.6,,,,,,,,,180,200,220,,220,Amateur Open,Yes,M,D,Raw,,,220,1988,
2,Pavlo Kipnyak,Ukraine,110,110,,,,,,,,,200,220,,,220,Amateur Open,Yes,M,D,Raw,,,220,1969,
1,Phillip Carr,USA,125,115.8,,,,,,,,,235,255,-282.5,,255,Amateur Open,Yes,M,D,Raw,,,255,1989,
2,Oleksandr Tolmachov,Ukraine,125,124.3,,,,,,,,,180,190,-200,,190,Amateur Open,Yes,M,D,Raw,,,190,1974,
1,Oleksandr Kalkutin,Ukraine,140,133.75,,,,,,,,,210,230,-240,,230,Amateur Open,Yes,M,D,Raw,,,230,1965,
1,Oleg Brazhnyk,Ukraine,140+,158,,,,,,,,,190,205,215,,215,Amateur Open,Yes,M,D,Raw,,,215,1970,
1,Francesco LoPorto,Italy,82.5,79.3,,,,,,,,,255,265,270,275,270,Amateur Submasters 33-39,Yes,M,D,Raw,,,270,1980,
1,Artur Podraza,Poland,90,88.9,,,,,,,,,220,-230,230,,230,Amateur Submasters 33-39,Yes,M,D,Raw,,,230,1986,
1,Karen Martirosyan,Armenia,100,97.7,,,,,,,,,150,170,-190,,170,Amateur Submasters 33-39,Yes,M,D,Raw,,,170,1982,
1,Igor Golovko #1,Ukraine,125,121.7,,,,,,,,,235,247.5,255,,255,Amateur Submasters 33-39,Yes,M,D,Raw,,,255,1983,
2,Can Yeşilpinar,Turkey,125,112.85,,,,,,,,,240,250,,,250,Amateur Submasters 33-39,Yes,M,D,Raw,,,250,1983,
1,Karen Hovhannisyan,Armenia,90,85.5,,,,,,,,,180,200,-210,,200,Amateur Masters 40-44,Yes,M,D,Raw,,,200,1978,
1,Aleksandr Ageenko,Ukraine,100,99.5,,,,,,,,,210,230,,,230,Amateur Masters 40-44,Yes,M,D,Raw,,,230,1976,
2,Hayk Afyan,Armenia,100,95.6,,,,,,,,,135,-150,155,,155,Amateur Masters 40-44,Yes,M,D,Raw,,,155,1978,
1,Oleksandr Tolmachov,Ukraine,125,124.3,,,,,,,,,180,190,-200,,190,Amateur Masters 40-44,Yes,M,D,Raw,,,190,1974,
1,Valentyn Slutskyy,Ukraine,110,103.9,,,,,,,,,200,207.5,-210,,207.5,Amateur Open,Yes,M,D,Raw,,,207.5,1973,
1,Oleg Brazhnyk,Ukraine,140+,158,,,,,,,,,190,205,215,,215,Amateur Open,Yes,M,D,Raw,,,215,1970,
1,Viacheslav Bulgakov,Ukraine,82.5,78.7,,,,,,,,,160,180,-190,,180,Amateur Masters 50-54,Yes,M,D,Raw,,,180,1966,
1,Pavlo Kipnyak,Ukraine,110,110,,,,,,,,,200,220,,,220,Amateur Masters 50-54,Yes,M,D,Raw,,,220,1969,
1,Gagik Saroyan,Armenia,125,125,,,,,,,,,100,,,,100,Amateur Masters 50-54,Yes,M,D,Raw,,,100,1967,
1,Oleksandr Kalkutin,Ukraine,140,133.75,,,,,,,,,210,230,-240,,230,Amateur Masters 50-54,Yes,M,D,Raw,,,230,1965,
1,Terry Harcleroad,USA,140+,151.4,,,,,,,,,-182.5,227.5,-237.5,,227.5,Amateur Masters 50-54,Yes,M,D,Raw,,,227.5,1965,
1,Gennadii Petrenko,Ukraine,75,73.9,,,,,,,,,180,195,-200,,195,Amateur Masters 55-59,Yes,M,D,Raw,,,195,1959,
2,Andrii Garadzha,Ukraine,75,73.05,,,,,,,,,120,130,140,,140,Amateur Masters 55-59,Yes,M,D,Raw,,,140,1962,
1,Volodymyr Chepurnyy,Ukraine,82.5,81.35,,,,,,,,,190,200,-210,,200,Amateur Masters 55-59,Yes,M,D,Raw,,,200,1960,
1,Yurii Ishchenko,Ukraine,90,85.75,,,,,,,,,135,145,150,,150,Amateur Open,Yes,M,D,Raw,,,150,1963,
1,Oleg Piskun,Ukraine,100,99.15,,,,,,,,,205,217.5,222.5,,222.5,Amateur Open,Yes,M,D,Raw,,,222.5,1962,
1,Ireneusz Czupryn,Poland,90,83.7,,,,,,,,,155,165,172.5,,172.5,Amateur Open,Yes,M,D,Raw,,,172.5,1955,
1,Piotr Redzik,Poland,125,121.3,,,,,,,,,180,202.5,225,,225,Amateur Open,Yes,M,D,Raw,,,225,1957,
1,Ryszard Śliwiński,Poland,75,74,,,,,,,,,140,150,160,,160,Amateur Masters 65-69,Yes,M,D,Raw,,,160,1950,
1,Oleksandr Ostrovskyy,Ukraine,82.5,79.5,,,,,,,,,130,150,160,,160,Amateur Masters 65-69,Yes,M,D,Raw,,,160,1953,
1,Yuriy Starkov,Ukraine,82.5,82.2,,,,,,,,,205,215,225,,225,Amateur Masters 70-74,Yes,M,D,Raw,,,225,1947,
1,Stefan Sochaňski,Poland,100,90.5,,,,,,,,,175,192.5,-202.5,,192.5,Amateur Masters 70-74,Yes,M,D,Raw,,,192.5,1948,
1,Viktor Stefanov,Ukraine,110,102.65,,,,,,,,,160,170,,,170,Amateur Masters 70-74,Yes,M,D,Raw,,,170,1948,
1,Valerii Popovych,Ukraine,60,57.75,,,,,,,,,160,170,177.5,,177.5,Amateur Military/Fire/Police,Yes,M,D,Raw,,,177.5,1994,
1,Stefan Sochaňski,Poland,100,90.5,,,,,,,,,175,192.5,-202.5,,192.5,Amateur Military/Fire/Police,Yes,M,D,Raw,,,192.5,1948,
1,Phillip Carr,USA,125,115.8,,,,,,,,,235,255,-282.5,,255,Amateur Military/Fire/Police,Yes,M,D,Raw,,,255,1989,
2,Igor Golovko #1,Ukraine,125,121.7,,,,,,,,,235,247.5,255,,255,Amateur Military/Fire/Police,Yes,M,D,Raw,,,255,1983,
1,Piotr Stefaniuk,Poland,67.5,66,,,,,,,,,185,197.5,202.5,,202.5,Amateur Paralympian,Yes,M,D,Raw,,,202.5,1991,
1,Eugeniia Senich,Ukraine,44,34.3,,,,,,,,,42.5,47.5,50,,50,Amateur Youth 8,Yes,F,D,Raw,,,50,2010,
1,Yana Khromets,Ukraine,56,55.4,,,,,,,,,50,60,-65,,60,Amateur Teen 18-19,Yes,F,D,Raw,,,60,2000,
1,Karolina Dubij,Poland,75,71.35,,,,,,,,,85,90,95,,95,Amateur Teen 18-19,Yes,F,D,Raw,,,95,2002,
1,Martyna Dubij,Poland,52,51,,,,,,,,,90,100,110,,110,Amateur Juniors 20-23,Yes,F,D,Raw,,,110,1999,
1,Olena Ruban,Ukraine,60,59.7,,,,,,,,,-135,150,-160,,150,Amateur Open,Yes,F,D,Raw,,,150,1992,
2,Lyubava Ostapets,Ukraine,60,59.1,,,,,,,,,135,140,-150,,140,Amateur Open,Yes,F,D,Raw,,,140,1988,
4,Armine Sargsyan,Ukraine,60,58.85,,,,,,,,,135,-145,-145,,135,Amateur Open,Yes,F,D,Raw,,,135,1981,
DQ,Maryna Kostenko,Ukraine,67.5,67.45,,,,,,,,,-135,-135,-135,,,Amateur Open,Yes,F,D,Raw,,,,1985,
1,Diana Barseghyan,Armenia,100+,103.45,,,,,,,,,150,160,-170,,160,Amateur Open,Yes,F,D,Raw,,,160,1990,
1,Nataliya Akhremenko,Ukraine,48,48,,,,,,,,,70,85,90,,90,Amateur Submasters 33-39,Yes,F,D,Raw,,,90,1984,
1,Tetiana Dzherelyuk,Ukraine,56,56,,,,,,,,,120,-130,-130,,120,Amateur Submasters 33-39,Yes,F,D,Raw,,,120,1983,
1,Vita Rudakova,Ukraine,75,72.5,,,,,,,,,145,155,-162.5,,155,Amateur Submasters 33-39,Yes,F,D,Raw,,,155,1980,
1,Olga Egorova #3,Ukraine,82.5,79.05,,,,,,,,,85,95,100,,100,Amateur Submasters 33-39,Yes,F,D,Raw,,,100,1983,
1,Olga Zhuk,Ukraine,100,92.9,,,,,,,,,65,80,95,,95,Amateur Masters 40-44,Yes,F,D,Raw,,,95,1975,
1,Yuliya Chumaieva,Ukraine,60,59.65,,,,,,,,,105,115,-120,,115,Amateur Masters 45-49,Yes,F,D,Raw,,,115,1973,
1,Olga Kritikova,Ukraine,67.5,66.5,,,,,,,,,115,127.5,140,,140,Amateur Masters 45-49,Yes,F,D,Raw,,,140,1971,
1,Beata Kowalska,Poland,75,69.85,,,,,,,,,142.5,152.5,155,,155,Amateur Masters 45-49,Yes,F,D,Raw,,,155,1973,
1,Tetiana Kremenchutska,Ukraine,67.5,66.3,,,,,,,,,105,115,125,,125,Amateur Masters 50-54,Yes,F,D,Raw,,,125,1967,
1,Svitlana Zhadan,Ukraine,48,48,,,,,,,,,85,90,95,,95,Amateur Masters 55-59,Yes,F,D,Raw,,,95,1964,
1,Stefan Sochaňski,Poland,100,90.5,,,,,,,,,190,205,215,,215,Amateur Masters 70-74,Yes,M,D,Multi-ply,,,215,1948,
1,Stefan Sochaňski,Poland,100,90.5,,,,,,,,,190,205,215,,215,Amateur Military/Fire/Police,Yes,M,D,Multi-ply,,,215,1948,
1,Weronika Obuchowicz,Poland,67.5,64.5,-150,-160,160,,70,80,-85,,160,170,180,,420,Pro Juniors 20-23,No,F,SBD,Wraps,160,80,180,1997,
2,Julia Łanecka,Poland,67.5,67,-130,130,-140,,72.5,77.5,-80,,130,-140,-140,,337.5,Pro Juniors 20-23,No,F,SBD,Wraps,130,77.5,130,1997,
1,Anastasiya Kalashnikova #1,Ukraine,52,51.75,145.5,152.5,157.5,,72.5,77.5,-82.5,,145,150,155,,390,Pro Open,No,F,SBD,Wraps,157.5,77.5,155,1985,
1,Joanna Głocka,Poland,60,59.6,-105,105,-110,,57.5,-62.5,-62.5,,105,112.5,120,,282.5,Pro Open,No,F,SBD,Wraps,105,57.5,120,1995,
1,Katarzyna Mądry,Poland,67.5,67.3,140,152.5,-160,,70,75,-80,,150,165,172.5,,400,Pro Open,No,F,SBD,Wraps,152.5,75,172.5,1993,
2,Zuzanna Sobczak,Poland,67.5,67.3,-130,-140,140,,65,72.5,-77.5,,130,142.5,-152.5,,355,Pro Open,No,F,SBD,Wraps,140,72.5,142.5,1987,
3,Masoumeh Moharami,Iran,67.5,67.4,100,-120,-125,,40,60,70,,110,135,152.5,,322.5,Pro Open,No,F,SBD,Wraps,100,70,152.5,1983,
1,Nataliya Mavdrik,Ukraine,75,72.45,190,200,210,,110,115,120,,200,210,220,,550,Pro Open,No,F,SBD,Wraps,210,120,220,1984,
1,Kamila Garczyńska,Poland,82.5,82.4,-135,135,-145,,55,-57.5,-57.5,,130,-145,-145,,320,Pro Open,No,F,SBD,Wraps,135,55,130,1993,
2,Barbara Łakomiec,Poland,82.5,81.5,115,125,135,,40,-45,-45,,115,125,-130,,300,Pro Open,No,F,SBD,Wraps,135,40,125,1993,
1,Klate Stępniewska Katarzyna,Poland,90,87.1,130,-140,-140,,57.5,65,-70,,150,165,-170,,360,Pro Open,No,F,SBD,Wraps,130,65,165,1985,
1,Narjes Irannejadrankuhi,Iran,67.5,66,100,-120,130,,50,60,80,,110,135,-140,,345,Pro Submasters 33-39,No,F,SBD,Wraps,130,80,135,1982,
2,Masoumeh Moharami,Iran,67.5,67.4,100,-120,-125,,40,60,70,,110,135,152.5,,322.5,Pro Submasters 33-39,No,F,SBD,Wraps,100,70,152.5,1983,
1,Dorota Kolodziej,Poland,75,70.6,100,105,-110,,55,60,-65,,115,125,,,290,Pro Masters 40-44,No,F,SBD,Wraps,105,60,125,1976,
1,Alper Dökücü,Turkey,82.5,79.4,140,-165,165,,105,115,-120,,170,-200,200,,480,Pro Teen 16-17,No,M,SBD,Raw,165,115,200,2002,2002-01-02
1,Mirza Toptaş,Turkey,110,107.3,-220,220,251,,120,140,-150,,-230,230,265,,656,Pro Teen 16-17,No,M,SBD,Wraps,251,140,265,2002,
1,Oven Erdogan,Turkey,67.5,64.7,-130,130,-140,,85,90,100,,155,165,175,,405,Pro Teen 18-19,No,M,SBD,Wraps,130,100,175,2000,
1,Vano Mertsi,Georgia,75,74.9,170,200,-210,,-90,95,102.5,,-220,220,-230,,522.5,Pro Teen 18-19,No,M,SBD,Wraps,200,102.5,220,2000,
1,Ozdemir Resit,Turkey,82.5,82.15,190,200,-210,,120,130,-135,,-240,240,-260,,570,Pro Teen 18-19,No,M,SBD,Wraps,200,130,240,2001,
1,Yigit Duran Ata,Turkey,90,90,200,220,230,,120,130,-140,,230,250,260,,620,Pro Teen 18-19,No,M,SBD,Wraps,230,130,260,2000,
1,Denys Sayevskyy,Ukraine,82.5,77.45,180,190,200,,110,115,-120,,220,-235,-235,,535,Pro Juniors 20-23,No,M,SBD,Wraps,200,115,220,1995,
1,Jakub Harasim,Poland,90,83.4,-240,240,-260,,120,130,-135,,230,250,-260,,620,Pro Juniors 20-23,No,M,SBD,Wraps,240,130,250,1997,
2,Quentin Bonnichon,France,90,85.7,175,187.5,-195,,122.5,-132.5,132.5,,180,202.5,-212.5,,522.5,Pro Juniors 20-23,No,M,SBD,Wraps,187.5,132.5,202.5,1998,
DQ,Veysel Dalsuna,Turkey,90,89.2,-220,-220,-220,,-130,,,,-250,,,,,Pro Juniors 20-23,No,M,SBD,Wraps,,,,1997,
1,Kacper Cichostępski,Poland,100,93.4,-210,210,222.5,,105,112.5,-117.5,,230,247.5,-260,,582.5,Pro Juniors 20-23,No,M,SBD,Wraps,222.5,112.5,247.5,1996,
1,Marek Włodarczyk,Poland,140+,141.3,310,-330,340,,160,170,-180,,310,-330,-350,,820,Pro Juniors 20-23,No,M,SBD,Wraps,340,170,310,1997,
1,Sergii Olenchuk,Ukraine,67.5,66.95,175,190,200,,92.5,102.5,-110,,170,185,-200,,487.5,Pro Open,No,M,SBD,Wraps,200,102.5,185,1986,
1,Ruslan Ruban,Ukraine,75,74.7,215,230,240,,155,165,175,,230,242.5,257.5,,672.5,Pro Open,No,M,SBD,Wraps,240,175,257.5,1990,
2,Andriy Boiko,Ukraine,75,75,-240,240,255,,-120,125,-132.5,,235,245,-255,,625,Pro Open,No,M,SBD,Wraps,255,125,245,1993,
1,Brian Phillips,USA,82.5,80.8,-250,250,260,,170,177.5,-180,,245,255,-272.5,,692.5,Pro Open,No,M,SBD,Wraps,260,177.5,255,1983,
2,Artur Dubinin,Ukraine,82.5,80.1,230,-240,240,,155,160,-165,,250,-260,-260,,650,Pro Open,No,M,SBD,Wraps,240,160,250,1987,
1,Amadeusz Dziemianko,Poland,90,90,-260,260,-280,,160,170,172.5,,230,245,-250,,677.5,Pro Open,No,M,SBD,Wraps,260,172.5,245,1993,
2,Taras Ganzha,Ukraine,90,89,250,262.5,-272.5,,135,142.5,147.5,,242.5,255,-262.5,,665,Pro Open,No,M,SBD,Wraps,262.5,147.5,255,1987,
3,Kacper Uszakiewicz,Poland,90,89.5,-210,210,217.5,,132.5,137.5,-142.5,,250,-265,-265,,605,Pro Open,No,M,SBD,Wraps,217.5,137.5,250,1988,
DQ,Marek Wawszczyk,Poland,90,87.5,-250,-250,-250,,-120,,,,-220,,,,,Pro Open,No,M,SBD,Wraps,,,,1991,
1,Oleg Khristoforov,Ukraine,100,99.5,350,-360,-360,,180,185,190,,270,300,305,,845,Pro Open,No,M,SBD,Wraps,350,190,305,1975,
2,Oleksandr Burda,Ukraine,100,99.15,-280,290,300,,180,-190,190,,280,300,315,,805,Pro Open,No,M,SBD,Wraps,300,190,315,1988,
3,Artur Lisowski,Poland,100,99,-285,285,-300,,165,172.5,180,,280,295,-300,,760,Pro Open,No,M,SBD,Wraps,285,180,295,1994,
4,Jakub Palenik,Poland,100,98,215,-225,230,,125,135,142.5,,190,200,210,,582.5,Pro Open,No,M,SBD,Wraps,230,142.5,210,1985,
1,Evgenii Rudnik,Ukraine,110,108.5,280,300,310,,200,210,220,,280,-300,-300,,810,Pro Open,No,M,SBD,Wraps,310,220,280,1978,
2,Łukasz Lipka,Poland,110,109.8,280,300,310,,170,-180,-180,,280,300,,,780,Pro Open,No,M,SBD,Wraps,310,170,300,1992,
3,Iegor Polomoshnov,Ukraine,110,106.6,240,260,-270,,200,-210,210,,250,260,270,,740,Pro Open,No,M,SBD,Wraps,260,210,270,1980,
4,Łukasz Witek,Poland,110,109.2,270,-285,-300,,150,160,-170,,260,275,-290,,705,Pro Open,No,M,SBD,Wraps,270,160,275,1991,
DQ,Rafał Wójcik,Poland,110,108.6,-275,-275,-275,,-190,,,,-300,,,,,Pro Open,No,M,SBD,Wraps,,,,1987,
2,Rafał Ziewiecki,Poland,125,115.5,275,-287.5,287.5,,150,160,170,,320,-335,-335,,777.5,Pro Open,No,M,SBD,Wraps,287.5,170,320,1987,
3,Adam Kijak,Poland,125,113.3,325,340,-350,,160,170,-175,,-260,260,-290,,770,Pro Open,No,M,SBD,Wraps,340,170,260,1995,
4,Didier Michelon,France,125,121.7,230,-250,-250,,155,165,,,140,,,,535,Pro Open,No,M,SBD,Wraps,230,165,140,1963,
1,Kamil Nojek,Poland,140,132.8,290,320,335,,190,205,220,,300,315,-330,,870,Pro Open,No,M,SBD,Wraps,335,220,315,1988,
2,Tomasz Milo,Poland,140,126.8,240,-260,270,,140,150,-155,,230,250,-270,,670,Pro Open,No,M,SBD,Wraps,270,150,250,1994,
1,Mousa Feizi Kararoudi,Iran,140+,150.5,350,-370,380,,180,190,200,,270,300,-310,,880,Pro Open,No,M,SBD,Wraps,380,200,300,1982,
2,Marek Włodarczyk,Poland,140+,141.3,310,-330,340,,160,170,-180,,310,-330,-350,,820,Pro Open,No,M,SBD,Wraps,340,170,310,1997,
1,Brian Phillips,USA,82.5,80.8,-250,250,260,,170,177.5,-180,,245,255,-272.5,,692.5,Pro Submasters 33-39,No,M,SBD,Wraps,260,177.5,255,1983,
DQ,Piotr Gawle,Poland,100,97.4,-220,-220,-230,,-130,,,,-225,,,,,Pro Submasters 33-39,No,M,SBD,Wraps,,,,1982,
1,Ghani Mehdi Bolkhari,Iran,110,109.55,180,220,-250,,120,140,-150,,170,190,215,,575,Pro Submasters 33-39,No,M,SBD,Wraps,220,140,215,1982,
1,Dmytro Kravchynskyy,Ukraine,125,122.1,200,220,230,,175,185,-192.5,,270,285,295,,710,Pro Submasters 33-39,No,M,SBD,Wraps,230,185,295,1982,
1,Oleg Khristoforov,Ukraine,100,99.5,350,-360,-360,,180,185,190,,270,300,305,,845,Pro Masters 40-44,No,M,SBD,Wraps,350,190,305,1975,
1,Sergii Zakharov,Ukraine,110,102.7,215,-225,225,,140,150,157.5,,220,-235,-235,,602.5,Pro Masters 40-44,No,M,SBD,Wraps,225,157.5,220,1977,
1,Mariusz Cichocki,Poland,125,116.1,190,-205,215,,170,180,190,,250,265,-275,,670,Pro Masters 40-44,No,M,SBD,Wraps,215,190,265,1977,
1,Mehmet Yedek,Turkey,75,74.5,140,-150,150,,90,-100,-100,,145,160,162.5,,402.5,Pro Masters 55-59,No,M,SBD,Wraps,150,90,162.5,1962,
1,Didier Michelon,France,125,121.7,230,-250,-250,,155,165,,,140,,,,535,Pro Open,No,M,SBD,Wraps,230,165,140,1963,
1,Wayne Grenier,USA,90,87.4,-80,-80,80,,85,-90,-90,,152.5,-160,-160,,317.5,Pro Masters 65-69,No,M,SBD,Wraps,80,85,152.5,1949,
1,Andriy Boiko,Ukraine,75,75,-240,240,255,,-120,125,-132.5,,235,245,-255,,625,Pro Military/Fire/Police,No,M,SBD,Wraps,255,125,245,1993,
1,Ramaz Gabaidze,Georgia,100,97.4,120,140,150,,120,125,-130,,200,210,-220,,485,Pro Military/Fire/Police,No,M,SBD,Wraps,150,125,210,1982,
1,Steven Wade,USA,125,125,192.5,227.5,237.5,,172.5,190,-200,,185,-215,215,,642.5,Pro Open,No,M,SBD,Multi-ply,237.5,190,215,1983,
1,Steven Wade,USA,125,125,192.5,227.5,237.5,,172.5,190,-200,,185,-215,215,,642.5,Pro Submasters 33-39,No,M,SBD,Multi-ply,237.5,190,215,1983,
1,Quentin Bonnichon,France,90,85.7,,,,,122.5,-132.5,132.5,,180,202.5,-212.5,,335,Pro Juniors 20-23,No,M,BD,Raw,,132.5,202.5,1998,
1,Brian Phillips,USA,82.5,80.8,,,,,170,177.5,-180,,245,255,-272.5,,432.5,Pro Open,No,M,BD,Raw,,177.5,255,1983,
1,Muhammed Enes Ozkan,Turkey,90,89.9,,,,,180,192.5,-195,,310,322.5,-330.5,,515,Pro Open,No,M,BD,Raw,,192.5,322.5,1987,
1,Levan Gorgodze,Georgia,125,114.8,,,,,195,207.5,215,,270,290,-300,,505,Pro Open,No,M,BD,Raw,,215,290,1987,
1,Brian Phillips,USA,82.5,80.8,,,,,170,177.5,-180,,245,255,-272.5,,432.5,Pro Submasters 33-39,No,M,BD,Raw,,177.5,255,1983,
1,Dmytro Kravchynskyy,Ukraine,125,122.1,,,,,175,185,-192.5,,270,285,295,,480,Pro Submasters 33-39,No,M,BD,Raw,,185,295,1982,
1,Sergii Zakharov,Ukraine,110,102.7,,,,,140,150,157.5,,220,-235,-235,,377.5,Pro Masters 40-44,No,M,BD,Raw,,157.5,220,1977,
1,Yurii Kostenko,Ukraine,100,96.6,,,,,160,172.5,180,,260,277.5,285,,465,Pro Masters 45-49,No,M,BD,Raw,,180,285,1971,
1,Datuna Mzhavanadze,Georgia,110,107.1,,,,,190,200,205,,250,-265,-265,,455,Pro Masters 45-49,No,M,BD,Raw,,205,250,1972,
1,Volodymyr Kolomiiets,Ukraine,100,93.7,,,,,135,140,145,,190,205,-215,,350,Pro Masters 50-54,No,M,BD,Raw,,145,205,1966,
1,Wayne Grenier,USA,90,87.4,,,,,85,-90,-90,,152.5,-160,-160,,237.5,Pro Masters 65-69,No,M,BD,Raw,,85,152.5,1949,
1,Shalva Bebiashvili,Georgia,125,123.85,,,,,180,190,195,,260,-270,-270,,455,Pro Military/Fire/Police,No,M,BD,Raw,,195,260,1987,
1,Steven Wade,USA,125,125,,,,,172.5,190,-200,,185,-215,215,,405,Pro Open,No,M,BD,Multi-ply,,190,215,1983,
1,Steven Wade,USA,125,125,,,,,172.5,190,-200,,185,-215,215,,405,Pro Submasters 33-39,No,M,BD,Multi-ply,,190,215,1983,
1,Cristina Costov,Moldova,82.5,78.8,,,,,55,65,70,,145,-155,155,,225,Pro Open,No,F,BD,Raw,,70,155,1982,
1,Zhaneta Shostak,Ukraine,75,70.15,,,,,60,65,-67.5,,102.5,112.5,120,,185,Pro Masters 45-49,No,F,BD,Raw,,65,120,1972,
1,Yusuf Demir Berke,Turkey,125,125,,,,,,,,,210,220,230,-235,230,Pro Teen 16-17,No,M,D,Raw,,,230,2001,
1,Denys Sayevskyy,Ukraine,82.5,77.45,,,,,,,,,220,-235,-235,,220,Pro Juniors 20-23,No,M,D,Raw,,,220,1995,
1,Mehmet Kucukyarma Sezgin,Turkey,90,89.7,,,,,,,,,-265,285,302.5,,302.5,Pro Juniors 20-23,No,M,D,Raw,,,302.5,1997,
1,Maciej Telatycki,Poland,100,93,,,,,,,,,280,295,305,310,305,Pro Juniors 20-23,No,M,D,Raw,,,305,1998,
2,Veysel Dalsuna,Turkey,100,99,,,,,,,,,160,-240,240,,240,Pro Juniors 20-23,No,M,D,Raw,,,240,1997,
1,Viacheslav Kravchenko,Ukraine,82.5,81.85,,,,,,,,,255,265,,,265,Pro Open,No,M,D,Raw,,,265,1969,
2,Brian Phillips,USA,82.5,80.8,,,,,,,,,245,255,-272.5,,255,Pro Open,No,M,D,Raw,,,255,1983,
1,Daviti Gulua,Georgia,90,88.4,,,,,,,,,230,255,-260,,255,Pro Open,No,M,D,Raw,,,255,1989,
DQ,Muhammed Enes Ozkan,Turkey,90,89.9,,,,,,,,,-305,-305,-305,,,Pro Open,No,M,D,Raw,,,,1987,
1,Pavlo Ishchenko,Ukraine,100,91,,,,,,,,,300,310,-325,,310,Pro Open,No,M,D,Raw,,,310,1991,
1,Rafał Wójcik,Poland,110,108.6,,,,,,,,,290,300,310,,310,Pro Open,No,M,D,Raw,,,310,1987,
2,Mariusz Bartołowicz,Poland,110,108.6,,,,,,,,,280,292.5,-300,,292.5,Pro Open,No,M,D,Raw,,,292.5,1979,
1,Robert Nemś,Poland,125,120,,,,,,,,,270,285,-290,,285,Pro Open,No,M,D,Raw,,,285,1969,
1,Piotr Gaj,Poland,140,126.8,,,,,,,,,-285,-285,285,,285,Pro Open,No,M,D,Raw,,,285,1993,
1,Brian Phillips,USA,82.5,80.8,,,,,,,,,245,255,-272.5,,255,Pro Submasters 33-39,No,M,D,Raw,,,255,1983,
1,Vasyl' Mykhalskyy,Ukraine,90,88.55,,,,,,,,,255,265,-272.5,,265,Pro Submasters 33-39,No,M,D,Raw,,,265,1980,
2,Serhii Kapustin,Ukraine,90,85.7,,,,,,,,,260,-275,-280,,260,Pro Submasters 33-39,No,M,D,Raw,,,260,1979,
1,Artur Hakobyan,Armenia,100,97,,,,,,,,,260,280,290,,290,Pro Submasters 33-39,No,M,D,Raw,,,290,1980,
1,Mariusz Bartołowicz,Poland,110,108.6,,,,,,,,,280,292.5,-300,,292.5,Pro Submasters 33-39,No,M,D,Raw,,,292.5,1979,
1,Dmytro Kravchynskyy,Ukraine,125,122.1,,,,,,,,,270,285,295,,295,Pro Submasters 33-39,No,M,D,Raw,,,295,1982,
1,Sergii Zakharov,Ukraine,110,102.7,,,,,,,,,220,-235,-235,,220,Pro Masters 40-44,No,M,D,Raw,,,220,1977,
1,Mariusz Cichocki,Poland,125,116.1,,,,,,,,,250,265,-275,,265,Pro Masters 40-44,No,M,D,Raw,,,265,1977,
1,Viacheslav Kravchenko,Ukraine,82.5,81.85,,,,,,,,,255,265,,,265,Pro Masters 45-49,No,M,D,Raw,,,265,1969,
1,Yaroslav Nagorniak,Ukraine,110,107.9,,,,,,,,,270,292.5,-305,,292.5,Pro Masters 45-49,No,M,D,Raw,,,292.5,1972,
2,Ihar Pyzhyanau,Belarus,110,104.5,,,,,,,,,205,215,-225,,215,Pro Masters 45-49,No,M,D,Raw,,,215,1972,
1,Robert Nemś,Poland,125,120,,,,,,,,,270,285,-290,,285,Pro Masters 45-49,No,M,D,Raw,,,285,1969,
1,Ararat Shahinyan,Armenia,82.5,80.8,,,,,,,,,170,180,-190,,180,Pro Masters 55-59,No,M,D,Raw,,,180,1963,
1,Wayne Grenier,USA,90,87.4,,,,,,,,,152.5,-160,-160,,152.5,Pro Masters 65-69,No,M,D,Raw,,,152.5,1949,
1,Mariusz Bartołowicz,Poland,110,108.6,,,,,,,,,280,292.5,-300,,292.5,Pro Military/Fire/Police,No,M,D,Raw,,,292.5,1979,
1,Khrystyna Kovtun,Ukraine,82.5,75.7,,,,,,,,,-95,95,97.5,,97.5,Pro Teen 18-19,No,F,D,Raw,,,97.5,2000,
1,Yuliia Tsymbalyuk,Ukraine,60,57,,,,,,,,,-100,100,-110,,100,Pro Open,No,F,D,Raw,,,100,1987,
1,Renata Zapała,Poland,67.5,67.2,,,,,,,,,110,120,-132.5,,120,Pro Open,No,F,D,Raw,,,120,1994,
1,Cristina Costov,Moldova,82.5,78.8,,,,,,,,,145,-155,155,,155,Pro Open,No,F,D,Raw,,,155,1982,
1,Masoumeh Moharami,Iran,67.5,67.4,,,,,,,,,110,135,152.5,,152.5,Pro Submasters 33-39,No,F,D,Raw,,,152.5,1983,
2,Narjes Irannejadrankuhi,Iran,67.5,66,,,,,,,,,110,135,-140,,135,Pro Submasters 33-39,No,F,D,Raw,,,135,1982,
DQ,Kateryna Stolpakova,Ukraine,75,73.9,,,,,,,,,-150,-150,-150,,,Pro Submasters 33-39,No,F,D,Raw,,,,1984,
1,Steven Wade,USA,125,125,,,,,,,,,185,-215,215,,215,Pro Open,No,M,D,Multi-ply,,,215,1983,
1,Gholamreza Ordikhani,Iran,100,99.8,,,,,,,,,170,200,-215,,200,Pro Submasters 33-39,No,M,D,Multi-ply,,,200,1983,
1,Steven Wade,USA,125,125,,,,,,,,,185,-215,215,,215,Pro Submasters 33-39,No,M,D,Multi-ply,,,215,1983,
1,Yuriy Malygin,Ukraine,100,94.5,,,,,,,,,120,155,165,,165,Pro Masters 50-54,No,M,D,Multi-ply,,,165,1967,
1,Olena Bashmakova,Ukraine,44,44,,,,,,,,,28,30,-31,,30,Pro Open,No,F,D,Raw,,,30,1982,
1,Monika Gryziecka,Poland,67.5,65.6,,,,,,,,,20,27.5,32,,32,Pro Open,No,F,D,Raw,,,32,1981,
1,Varvara Yemelianenko,Ukraine,75,68.05,,,,,,,,,32,34.5,37.5,,37.5,Pro Open,No,F,D,Raw,,,37.5,1994,
1,Monika Gryziecka,Poland,67.5,65.6,,,,,,,,,20,27.5,32,,32,Pro Submasters 33-39,No,F,D,Raw,,,32,1981,
1,Kateryna Stolpakova,Ukraine,75,73.9,,,,,,,,,-34,34,36,,36,Pro Submasters 33-39,No,F,D,Raw,,,36,1984,
1,Olga Egorova #3,Ukraine,82.5,79.05,,,,,,,,,26,28,30,,30,Pro Submasters 33-39,No,F,D,Raw,,,30,1983,
1,Tymur Lysenko,Ukraine,48,45.85,,,,,,,,,20,22,23,,23,Pro Teen 13-15,No,M,D,Raw,,,23,2005,
1,Mykyta Rayevskyy,Ukraine,75,74.25,,,,,,,,,52,55,57.5,,57.5,Pro Teen 16-17,No,M,D,Raw,,,57.5,2003,
1,Vladyslav Martynyuk,Ukraine,67.5,67.2,,,,,,,,,56,61,-62,,61,Pro Teen 18-19,No,M,D,Raw,,,61,2000,
1,Viktor Reshenin,Ukraine,82.5,80.5,,,,,,,,,70,75,77.5,80,77.5,Pro Juniors 20-23,No,M,D,Raw,,,77.5,1996,
1,Levani Abesadze,Georgia,100,90.5,,,,,,,,,50,60,-67,,60,Pro Juniors 20-23,No,M,D,Raw,,,60,1995,
1,Tymur Lysenko,Ukraine,52,45.85,,,,,,,,,20,22,23,,23,Pro Open,No,M,D,Raw,,,23,2005,
1,Anton Mega,Ukraine,56,55.3,,,,,,,,,44.5,-47,-47,,44.5,Pro Open,No,M,D,Raw,,,44.5,1991,
1,Giorgi Janashia,Georgia,67.5,66.3,,,,,,,,,55,60,65,-68,65,Pro Open,No,M,D,Raw,,,65,1988,
1,Viktor Reshenin,Ukraine,82.5,80.5,,,,,,,,,70,75,77.5,80,77.5,Pro Open,No,M,D,Raw,,,77.5,1996,
2,Bogdan Golyonko,Ukraine,82.5,81.35,,,,,,,,,67,72,-75.5,,72,Pro Open,No,M,D,Raw,,,72,1994,
3,Arkadii Simonovych,Ukraine,82.5,82.1,,,,,,,,,65,-72,-72,,65,Pro Open,No,M,D,Raw,,,65,1992,
4,Viktor Blakytnyy,Ukraine,82.5,81.8,,,,,,,,,45,55,60,,60,Pro Open,No,M,D,Raw,,,60,1981,
5,Valerii Onishchuk,Ukraine,82.5,81.1,,,,,,,,,50,54,58,,58,Pro Open,No,M,D,Raw,,,58,1981,
DQ,Yevhen Bezkorovainyi,Ukraine,82.5,77.35,,,,,,,,,-75,-75,-75,,,Pro Open,No,M,D,Raw,,,,1990,
1,Oleksadnr Nikulin,Ukraine,90,87.8,,,,,,,,,80,82.5,-85,,82.5,Pro Open,No,M,D,Raw,,,82.5,1983,
2,Oleksiy Liushukov,Ukraine,90,89.1,,,,,,,,,-76,77,80,,80,Pro Open,No,M,D,Raw,,,80,1979,
3,Oleg Nikolenko,Ukraine,90,89,,,,,,,,,-72,76,-77,,76,Pro Open,No,M,D,Raw,,,76,1994,
4,Daviti Gulua,Georgia,90,88.4,,,,,,,,,50,55,60,,60,Pro Open,No,M,D,Raw,,,60,1989,
1,Igor Melnyk,Ukraine,100,98.15,,,,,,,,,77.5,80,-83,,80,Pro Open,No,M,D,Raw,,,80,1982,
2,Oleg Kalinichenko,Ukraine,100,98.05,,,,,,,,,-73,75.5,79,,79,Pro Open,No,M,D,Raw,,,79,1991,
1,Sergii Yaremchuk,Ukraine,110,108.65,,,,,,,,,85,-90,92.5,,92.5,Pro Open,No,M,D,Raw,,,92.5,1989,
2,Oleksii Kolodyazhnyy,Ukraine,110,109.5,,,,,,,,,76,-82,-82,,76,Pro Open,No,M,D,Raw,,,76,1981,
3,Oleksandr Kysilchuk,Ukraine,110,101.45,,,,,,,,,65,70,72,,72,Pro Open,No,M,D,Raw,,,72,1993,
4,Anton Lysenko #1,Ukraine,110,103.8,,,,,,,,,60,65,68,,68,Pro Open,No,M,D,Raw,,,68,1979,
1,Levan Gorgodze,Georgia,125,114.8,,,,,,,,,72,80,-87,,80,Pro Open,No,M,D,Raw,,,80,1987,
1,Viktor Kochmar,Ukraine,140,132.6,,,,,,,,,85,-92,-92,,85,Pro Open,No,M,D,Raw,,,85,1970,
2,Piotr Gaj,Poland,140,126.8,,,,,,,,,60,-70,-70,,60,Pro Open,No,M,D,Raw,,,60,1993,
1,Dmytro Karpenko,Ukraine,82.5,81,,,,,,,,,70,-78.5,78.5,,78.5,Pro Submasters 33-39,No,M,D,Raw,,,78.5,1985,
2,Viktor Blakytnyy,Ukraine,82.5,81.8,,,,,,,,,45,55,60,,60,Pro Submasters 33-39,No,M,D,Raw,,,60,1981,
3,Valerii Onishchuk,Ukraine,82.5,81.1,,,,,,,,,50,54,58,,58,Pro Submasters 33-39,No,M,D,Raw,,,58,1981,
1,Oleksadnr Nikulin,Ukraine,90,87.8,,,,,,,,,80,82.5,-85,,82.5,Pro Submasters 33-39,No,M,D,Raw,,,82.5,1983,
2,Oleksiy Liushukov,Ukraine,90,89.1,,,,,,,,,-76,77,80,,80,Pro Submasters 33-39,No,M,D,Raw,,,80,1979,
3,Elnur Balahasanzada,Azerbaijan,90,90,,,,,,,,,60,70,-85,,70,Pro Submasters 33-39,No,M,D,Raw,,,70,1994,
1,Igor Melnyk,Ukraine,100,98.15,,,,,,,,,77.5,80,-83,,80,Pro Submasters 33-39,No,M,D,Raw,,,80,1982,
1,Oleksandr Shevel,Ukraine,110,108.9,,,,,,,,,84,88.5,92.5,,92.5,Pro Submasters 33-39,No,M,D,Raw,,,92.5,1986,
2,Maksim Filatov,Belarus,110,108.85,,,,,,,,,70,76,82,,82,Pro Submasters 33-39,No,M,D,Raw,,,82,1979,
3,Oleksii Kolodyazhnyy,Ukraine,110,109.5,,,,,,,,,76,-82,-82,,76,Pro Submasters 33-39,No,M,D,Raw,,,76,1981,
1,Volodymyr Ratushnyy,Ukraine,100,94.5,,,,,,,,,50,65,-73,,65,Pro Masters 40-44,No,M,D,Raw,,,65,1974,
1,Anton Lysenko #1,Ukraine,110,103.8,,,,,,,,,60,65,68,,68,Pro Masters 40-44,No,M,D,Raw,,,68,1979,
1,Viktor Buyanoskyy,Ukraine,110,106,,,,,,,,,45,50,,,50,Pro Masters 45-49,No,M,D,Raw,,,50,1969,
1,Serhii Avramenko,Ukraine,125,113.55,,,,,,,,,50,52,55,,55,Pro Masters 45-49,No,M,D,Raw,,,55,1971,
1,Viktor Kochmar,Ukraine,140,132.6,,,,,,,,,85,-92,-92,,85,Pro Masters 45-49,No,M,D,Raw,,,85,1970,
1,Andrii Garadzha,Ukraine,75,73.05,,,,,,,,,50,52.5,-55,,52.5,Pro Masters 55-59,No,M,D,Raw,,,52.5,1962,
1,Wayne Grenier,USA,90,87.4,,,,,,,,,41,-45,-45,,41,Pro Masters 65-69,No,M,D,Raw,,,41,1949,
1,Volodymyr Ratushnyy,Ukraine,100,94.5,,,,,,,,,50,65,-73,,65,Pro Military/Fire/Police,No,M,D,Raw,,,65,1974,
1,Serhii Avramenko,Ukraine,125,113.55,,,,,,,,,50,52,55,,55,Pro Military/Fire/Police,No,M,D,Raw,,,55,1971,
1,Krystian Tuzikowski,Poland,56,56,,,,,90,95,-102.5,,,,,,95,Pro Teen 16-17,No,M,B,Raw,,95,,2001,
1,Volkan Ertas,Turkey,75,71.1,,,,,125,-130,,,,,,,125,Pro Teen 18-19,No,M,B,Raw,,125,,2000,
1,Seyithan Diricanli,Turkey,90,86.35,,,,,130,135,140,,,,,,140,Pro Teen 18-19,No,M,B,Raw,,140,,2000,
1,Quentin Bonnichon,France,90,85.7,,,,,-122.5,-122.5,122.5,,,,,,122.5,Pro Open,No,M,B,Raw,,122.5,,1998,
1,Seweryn Praszkowski,Poland,100,99.6,,,,,190,-200,-207.5,,,,,,190,Pro Open,No,M,B,Raw,,190,,1997,
1,Saruhan Kilavuz,Turkey,110,105.4,,,,,150,-155,155,,,,,,155,Pro Open,No,M,B,Raw,,155,,1999,
DQ,Tomasz Benisz,Poland,110,102.5,,,,,-170,-170,-170,,,,,,,Pro Open,No,M,B,Raw,,,,1996,
DQ,Dawid Dychowski,Poland,110,109,,,,,-190,-190,-190,,,,,,,Pro Open,No,M,B,Raw,,,,1998,
1,Volodymyr Bodrikov,Ukraine,125,117.65,,,,,200,210,222.5,,,,,,222.5,Pro Open,No,M,B,Raw,,222.5,,1996,
1,Michał Zębrowski Michał,Poland,60,57.95,,,,,102.5,107.5,110,,,,,,110,Pro Open,No,M,B,Raw,,110,,1991,
1,Piotr Jęsiak,Poland,67.5,66.65,,,,,162.5,167.5,-170,,,,,,167.5,Pro Open,No,M,B,Raw,,167.5,,1993,
2,Erdal Satır,Turkey,67.5,63.35,,,,,135,145,-152.5,,,,,,145,Pro Open,No,M,B,Raw,,145,,1989,
1,Roman Eremashvili,Belarus,75,74.3,,,,,210,220,227.5,,,,,,227.5,Pro Open,No,M,B,Raw,,227.5,,1981,
2,Sebastian Żurawski,Poland,75,73.95,,,,,160,165,170,,,,,,170,Pro Open,No,M,B,Raw,,170,,1997,
3,Sergii Melnyk,Ukraine,75,74.6,,,,,160,165,-167.5,,,,,,165,Pro Open,No,M,B,Raw,,165,,1982,
4,Radosław Rosiak,UK,75,74,,,,,100,-110,-110,,,,,,100,Pro Open,No,M,B,Raw,,100,,1980,
1,Mateusz Pawelak,Poland,82.5,81.6,,,,,180,190,195,,,,,,195,Pro Open,No,M,B,Raw,,195,,1990,
2,Vadym Marynych,Ukraine,82.5,82.5,,,,,-180,190,-195,,,,,,190,Pro Open,No,M,B,Raw,,190,,1981,
3,Brian Phillips,USA,82.5,80.8,,,,,170,177.5,-180,,,,,,177.5,Pro Open,No,M,B,Raw,,177.5,,1983,
4,Viktor Blakytnyy,Ukraine,82.5,81.8,,,,,162.5,-175,-175,,,,,,162.5,Pro Open,No,M,B,Raw,,162.5,,1981,
1,Oleksandr Onischenko #1,Ukraine,90,89.8,,,,,-212.5,212.5,222.5,-231,,,,,222.5,Pro Open,No,M,B,Raw,,222.5,,1980,
2,Ernest Gromov,Ukraine,90,87.1,,,,,210,-215,-217.5,,,,,,210,Pro Open,No,M,B,Raw,,210,,1994,
3,Artem Kots,Ukraine,90,88.2,,,,,187.5,195,-200,,,,,,195,Pro Open,No,M,B,Raw,,195,,1987,
4,Patryk Kaczmarek,Poland,90,89.6,,,,,170,177.5,185,,,,,,185,Pro Open,No,M,B,Raw,,185,,1995,
5,Paweł Pruszyński,Poland,90,88.45,,,,,160,170,-177.5,,,,,,170,Pro Open,No,M,B,Raw,,170,,1988,
DQ,Myklailo Morozov,Ukraine,90,87.5,,,,,-210,-210,-225,,,,,,,Pro Open,No,M,B,Raw,,,,1987,
1,Marcin Gołębiewski,Poland,100,99.4,,,,,210,215,220,,,,,,220,Pro Open,No,M,B,Raw,,220,,1991,
2,Hovhannes Yazichyan,Armenia,100,95,,,,,200,205,212.5,,,,,,212.5,Pro Open,No,M,B,Raw,,212.5,,1971,
3,Volodymyr Galyga,Ukraine,100,93.5,,,,,200,207.5,-210,,,,,,207.5,Pro Open,No,M,B,Raw,,207.5,,1983,
4,Jarosław Fabiszewski,Poland,100,96.35,,,,,202.5,207.5,-212.5,,,,,,207.5,Pro Open,No,M,B,Raw,,207.5,,1989,
5,Jarosław Domański,Poland,100,99.25,,,,,-195,200,-212.5,,,,,,200,Pro Open,No,M,B,Raw,,200,,1992,
6,Patryk Zgliński,Poland,100,99.1,,,,,180,187.5,195,,,,,,195,Pro Open,No,M,B,Raw,,195,,1994,
7,Oleg Kalinichenko,Ukraine,100,98.05,,,,,180,185,-190,,,,,,185,Pro Open,No,M,B,Raw,,185,,1991,
8,Igor Melnyk,Ukraine,100,98.15,,,,,180,185,-190,,,,,,185,Pro Open,No,M,B,Raw,,185,,1982,
1,Georgi Beroshvili,Georgia,110,110,,,,,265,275,285,,,,,,285,Pro Open,No,M,B,Raw,,285,,1984,
2,Sergii Yaremchuk,Ukraine,110,108.65,,,,,210,220,-225,,,,,,220,Pro Open,No,M,B,Raw,,220,,1989,
3,Oleg Borysov,Ukraine,110,109.3,,,,,190,200,-210,,,,,,200,Pro Open,No,M,B,Raw,,200,,1971,
4,Rafał Wójcik,Poland,110,108.6,,,,,-190,-190,190,,,,,,190,Pro Open,No,M,B,Raw,,190,,1987,
1,Arkadiusz Herodowicz,Poland,125,123.3,,,,,230,240,250,,,,,,250,Pro Open,No,M,B,Raw,,250,,1982,
2,Adam Sławnikowski,Poland,125,111.3,,,,,190,200,-210,,,,,,200,Pro Open,No,M,B,Raw,,200,,1986,
3,Didier Michelon,France,125,121.7,,,,,155,165,,,,,,,165,Pro Open,No,M,B,Raw,,165,,1963,
1,Oleksandr Gensitskyy,Ukraine,140,139.8,,,,,220,230,-240,,,,,,230,Pro Open,No,M,B,Raw,,230,,1975,
2,Evgen Shuturminskyy,Ukraine,140,139.05,,,,,205,215,-220,,,,,,215,Pro Open,No,M,B,Raw,,215,,1967,
1,Bartłomiej Jaruga,Poland,140+,149.1,,,,,225,235,-245,,,,,,235,Pro Open,No,M,B,Raw,,235,,1986,
2,Tomasz Węgliński,Poland,140+,140.1,,,,,200,210,-220,,,,,,210,Pro Open,No,M,B,Raw,,210,,1978,
1,Radosław Rosiak,UK,75,74,,,,,100,-110,-110,,,,,,100,Pro Submasters 33-39,No,M,B,Raw,,100,,1980,
1,Brian Phillips,USA,82.5,80.8,,,,,170,177.5,-180,,,,,,177.5,Pro Submasters 33-39,No,M,B,Raw,,177.5,,1983,
2,Viktor Blakytnyy,Ukraine,82.5,81.8,,,,,162.5,-175,-175,,,,,,162.5,Pro Submasters 33-39,No,M,B,Raw,,162.5,,1981,
1,Oleksandr Onischenko #1,Ukraine,90,89.8,,,,,-212.5,212.5,222.5,-231,,,,,222.5,Pro Submasters 33-39,No,M,B,Raw,,222.5,,1980,
1,Volodymyr Galyga,Ukraine,100,93.5,,,,,200,207.5,-210,,,,,,207.5,Pro Submasters 33-39,No,M,B,Raw,,207.5,,1983,
2,Igor Melnyk,Ukraine,100,98.15,,,,,180,185,-190,,,,,,185,Pro Submasters 33-39,No,M,B,Raw,,185,,1982,
1,Rafał Niedźwiecki,Poland,110,109.9,,,,,-215,215,-220,,,,,,215,Pro Submasters 33-39,No,M,B,Raw,,215,,,
2,Andriy Prykhodko,Ukraine,110,109.8,,,,,175,182.5,190,,,,,,190,Pro Submasters 33-39,No,M,B,Raw,,190,,1981,
1,Arkadiusz Herodowicz,Poland,125,123.3,,,,,230,240,250,,,,,,250,Pro Submasters 33-39,No,M,B,Raw,,250,,1982,
DQ,Volodymyr Ratushnyy,Ukraine,100,94.5,,,,,-155,-160,-160,,,,,,,Pro Masters 40-44,No,M,B,Raw,,,,1974,
1,Sergii Zakharov,Ukraine,110,102.7,,,,,140,150,157.5,,,,,,157.5,Pro Masters 40-44,No,M,B,Raw,,157.5,,1977,
1,Mariusz Cichocki,Poland,125,116.1,,,,,170,180,190,,,,,,190,Pro Masters 40-44,No,M,B,Raw,,190,,1977,
1,Oleksandr Gensitskyy,Ukraine,140,139.8,,,,,220,230,-240,,,,,,230,Pro Masters 40-44,No,M,B,Raw,,230,,1975,
2,Tomasz Czapiewski,Poland,140,139.55,,,,,170,-190,190,,,,,,190,Pro Masters 40-44,No,M,B,Raw,,190,,1977,
1,Tomasz Węgliński,Poland,140+,140.1,,,,,200,210,-220,,,,,,210,Pro Masters 40-44,No,M,B,Raw,,210,,1978,
1,Hovhannes Yazichyan,Armenia,100,95,,,,,200,205,212.5,,,,,,212.5,Pro Masters 45-49,No,M,B,Raw,,212.5,,1971,
2,Maksym Nechausov,Ukraine,100,96.2,,,,,167.5,175,180,,,,,,180,Pro Masters 45-49,No,M,B,Raw,,180,,1972,
1,Datuna Mzhavanadze,Georgia,110,107.1,,,,,190,200,205,,,,,,205,Pro Masters 45-49,No,M,B,Raw,,205,,1972,
2,Oleg Borysov,Ukraine,110,109.3,,,,,190,200,-210,,,,,,200,Pro Masters 45-49,No,M,B,Raw,,200,,1971,
3,Oleksii Elamkov,Ukraine,110,108.8,,,,,182.5,-192.5,-192.5,,,,,,182.5,Pro Masters 45-49,No,M,B,Raw,,182.5,,1973,
1,Valerii Kuznetsov,Ukraine,100,99.4,,,,,-130,130,137.5,,,,,,137.5,Pro Masters 50-54,No,M,B,Raw,,137.5,,1967,
1,Andriy Gimbarov,Ukraine,110,106.9,,,,,145,155,160,,,,,,160,Pro Masters 50-54,No,M,B,Raw,,160,,1966,
1,Vsevolod Goncharov,Ukraine,125,120.15,,,,,110,117.5,-125,,,,,,117.5,Pro Masters 50-54,No,M,B,Raw,,117.5,,1969,
1,Evgen Shuturminskyy,Ukraine,140,139.05,,,,,205,215,-220,,,,,,215,Pro Masters 50-54,No,M,B,Raw,,215,,1967,
1,Didier Michelon,France,125,121.7,,,,,155,165,,,,,,,165,Pro Masters 55-59,No,M,B,Raw,,165,,1963,
1,Ryszard Wilczak,Poland,110,101.5,,,,,145,150,155,,,,,,155,Pro Masters 60-64,No,M,B,Raw,,155,,1955,
2,Henryk Świerzy,Poland,110,106.4,,,,,-140,140,-142.5,,,,,,140,Pro Masters 60-64,No,M,B,Raw,,140,,1956,
1,Wayne Grenier,USA,90,87.4,,,,,85,-90,-90,,,,,,85,Pro Masters 65-69,No,M,B,Raw,,85,,1949,
1,Oleksandr Popovych,Ukraine,75,75,,,,,120,130,140,,,,,,140,Pro Military/Fire/Police,No,M,B,Raw,,140,,1972,
1,Davit Joidze,Georgia,82.5,77.8,,,,,140,145,-150,,,,,,145,Pro Military/Fire/Police,No,M,B,Raw,,145,,1997,
1,Paweł Pruszyński,Poland,90,88.45,,,,,160,170,-177.5,,,,,,170,Pro Military/Fire/Police,No,M,B,Raw,,170,,1988,
1,Teimuraz Gogoladze,Georgia,100,93.2,,,,,170,180,-190,,,,,,180,Pro Military/Fire/Police,No,M,B,Raw,,180,,1975,
DQ,Volodymyr Ratushnyy,Ukraine,100,94.5,,,,,-155,-160,-160,,,,,,,Pro Military/Fire/Police,No,M,B,Raw,,,,1974,
1,Koba Kobakhidze,Georgia,110,107.2,,,,,170,180,190,,,,,,190,Pro Military/Fire/Police,No,M,B,Raw,,190,,1975,
2,Denys Tykhankov,Ukraine,110,108.95,,,,,150,160,-170,,,,,,160,Pro Military/Fire/Police,No,M,B,Raw,,160,,1988,
1,Shalva Bebiashvili,Georgia,125,123.85,,,,,180,190,195,,,,,,195,Pro Military/Fire/Police,No,M,B,Raw,,195,,1987,
1,Pavlo Kozak,Ukraine,56,54.2,,,,,120,130,135,-143,,,,,135,Pro Paralympian,No,M,B,Raw,,135,,1983,
2,Krystian Tuzikowski,Poland,56,56,,,,,90,95,-102.5,,,,,,95,Pro Paralympian,No,M,B,Raw,,95,,2001,
1,Bogdan Koshulab,Ukraine,67.5,66.2,,,,,120,125,130,,,,,,130,Pro Paralympian,No,M,B,Raw,,130,,1992,
1,Bartłomiej Rogoziński,Poland,110,104.4,,,,,160,165,-170,,,,,,165,Pro Open,No,M,B,Raw,,165,,1982,
1,Weronika Lenort,Poland,67.5,64.9,,,,,-70,70,75,,,,,,75,Pro Teen 18-19,No,F,B,Raw,,75,,2000,
1,Olena Bashmakova,Ukraine,44,44,,,,,45,47.5,50,,,,,,50,Pro Open,No,F,B,Raw,,50,,1982,
1,Oleksandra Astakhova,Ukraine,56,55.35,,,,,65,-70,-70,,,,,,65,Pro Open,No,F,B,Raw,,65,,1990,
1,Magdalena Pietrzyk,Poland,67.5,65.9,,,,,90,-97.5,-97.5,,,,,,90,Pro Open,No,F,B,Raw,,90,,1991,
1,Nataliya Mavdrik,Ukraine,75,72.45,,,,,110,115,120,,,,,,120,Pro Open,No,F,B,Raw,,120,,1984,
2,Marta Chachuła,Poland,75,70.7,,,,,100,105,107.5,,,,,,107.5,Pro Open,No,F,B,Raw,,107.5,,1987,
1,Svetlana Sinacheva,Russia,82.5,82.45,,,,,110,115,117.5,,,,,,117.5,Pro Open,No,F,B,Raw,,117.5,,1966,
2,Anna Paluszik,Poland,82.5,75.5,,,,,70,75,-82.5,,,,,,75,Pro Open,No,F,B,Raw,,75,,1990,
1,Olena Bashmakova,Ukraine,44,44,,,,,45,47.5,50,,,,,,50,Pro Submasters 33-39,No,F,B,Raw,,50,,1982,
1,Svetlana Sinacheva,Russia,82.5,82.45,,,,,110,115,117.5,,,,,,117.5,Pro Masters 50-54,No,F,B,Raw,,117.5,,1966,
1,Kostiantyn Chernov,Ukraine,90,89.4,,,,,245,255,-265,,,,,,255,Pro Open,No,M,B,Multi-ply,,255,,1984,
2,Irakli Tskhovrebashvili,Georgia,90,89.4,,,,,210,-230,-230,,,,,,210,Pro Open,No,M,B,Multi-ply,,210,,1981,
3,Paweł Pruszyński,Poland,90,88.45,,,,,-180,185,-200,,,,,,185,Pro Open,No,M,B,Multi-ply,,185,,1988,
DQ,Sergii Demianov,Ukraine,90,89.5,,,,,-235,-235,-235,,,,,,,Pro Open,No,M,B,Multi-ply,,,,1986,
1,Vitaliy Menchuk,Ukraine,100,93,,,,,260,-280,-280,,,,,,260,Pro Open,No,M,B,Multi-ply,,260,,1998,
2,Franciszek Szabluk,Poland,100,99.8,,,,,220,230.5,245,-250,,,,,245,Pro Open,No,M,B,Multi-ply,,245,,1956,
3,Volodymyr Mygas,Ukraine,100,91,,,,,220,-230,-230,,,,,,220,Pro Open,No,M,B,Multi-ply,,220,,1975,
DQ,Sergiy Ivanov,Ukraine,110,106.25,,,,,-330,-330,-340,,,,,,,Pro Open,No,M,B,Multi-ply,,,,1990,
1,Didier Michelon,France,125,121.7,,,,,230,270,-300,,,,,,270,Pro Open,No,M,B,Multi-ply,,270,,1963,
2,Samed Ghoreishi Seyed,Iran,125,120,,,,,-220,230,250,,,,,,250,Pro Open,No,M,B,Multi-ply,,250,,1982,
3,Hamed Sadeghi,Iran,125,120.95,,,,,177.5,190,-200,,,,,,190,Pro Open,No,M,B,Multi-ply,,190,,1992,
4,Steven Wade,USA,125,125,,,,,172.5,190,-200,,,,,,190,Pro Open,No,M,B,Multi-ply,,190,,1983,
1,Tomasz Andrzejczak,Poland,140+,149,,,,,250,260,,,,,,,260,Pro Open,No,M,B,Multi-ply,,260,,1978,
2,Jussi Kananen,Finland,140+,153.65,,,,,210,-227.5,-227.5,,,,,,210,Pro Open,No,M,B,Multi-ply,,210,,1984,
1,Irakli Tskhovrebashvili,Georgia,90,89.4,,,,,210,-230,-230,,,,,,210,Pro Submasters 33-39,No,M,B,Multi-ply,,210,,1981,
1,Gholamreza Ordikhani,Iran,100,99.8,,,,,120,135,142.5,,,,,,142.5,Pro Submasters 33-39,No,M,B,Multi-ply,,142.5,,1983,
1,Samed Ghoreishi Seyed,Iran,125,120,,,,,-220,230,250,,,,,,250,Pro Submasters 33-39,No,M,B,Multi-ply,,250,,1982,
2,Steven Wade,USA,125,125,,,,,172.5,190,-200,,,,,,190,Pro Submasters 33-39,No,M,B,Multi-ply,,190,,1983,
1,Jussi Kananen,Finland,140+,153.65,,,,,210,-227.5,-227.5,,,,,,210,Pro Submasters 33-39,No,M,B,Multi-ply,,210,,1984,
1,Volodymyr Mygas,Ukraine,100,91,,,,,220,-230,-230,,,,,,220,Pro Masters 40-44,No,M,B,Multi-ply,,220,,1975,
1,Tomasz Czapiewski,Poland,140,139.55,,,,,180,-370,-370,,,,,,180,Pro Masters 40-44,No,M,B,Multi-ply,,180,,1977,
1,Tomasz Andrzejczak,Poland,140+,149,,,,,250,260,,,,,,,260,Pro Masters 40-44,No,M,B,Multi-ply,,260,,1978,
1,Andriy Gimbarov,Ukraine,110,106.9,,,,,140,,-145,,,,,,140,Pro Masters 50-54,No,M,B,Multi-ply,,140,,1966,
1,Didier Michelon,France,125,121.7,,,,,230,270,-300,,,,,,270,Pro Masters 55-59,No,M,B,Multi-ply,,270,,1963,
1,Franciszek Szabluk,Poland,100,99.8,,,,,220,230.5,245,-250,,,,,245,Pro Masters 60-64,No,M,B,Multi-ply,,245,,1956,
1,Paweł Pruszyński,Poland,90,88.45,,,,,-180,185,-200,,,,,,185,Pro Military/Fire/Police,No,M,B,Multi-ply,,185,,1988,
DQ,Lemir Foad-Zareei,Iran,125,118.6,,,,,-230,-230,-230,,,,,,,Pro Military/Fire/Police,No,M,B,Multi-ply,,,,1987,
1,Jussi Kananen,Finland,140+,153.65,,,,,210,-227.5,-227.5,,,,,,210,Pro Military/Fire/Police,No,M,B,Multi-ply,,210,,1984,
1,Aleksandr Makey,Belarus,110,109.8,,,,,305,315,-325,,,,,,315,Pro Open,No,M,B,Multi-ply,,315,,1964,
1,Aleksandr Bantsevich,Belarus,125,124.8,,,,,-310,-310,310,,,,,,310,Pro Open,No,M,B,Multi-ply,,310,,1993,
DQ,Arkadiusz Herodowicz,Poland,125,123.3,,,,,-290,,,,,,,,,Pro Open,No,M,B,Multi-ply,,,,1982,
1,Jussi Kananen,Finland,140+,153.65,,,,,210,225,237.5,,,,,,237.5,Pro Open,No,M,B,Multi-ply,,237.5,,1984,
2,Gourani Sirvan,Iran,140,125.1,,,,,210,-230,-230,,,,,,210,Pro Open,No,M,B,Multi-ply,,210,,1988,
1,Rafał Niedźwiecki,Poland,110,109.9,,,,,290,-300,-300,,,,,,290,Pro Submasters 33-39,No,M,B,Multi-ply,,290,,1984,
DQ,Arkadiusz Herodowicz,Poland,125,123.3,,,,,-290,,,,,,,,,Pro Submasters 33-39,No,M,B,Multi-ply,,,,1982,
1,Jussi Kananen,Finland,140+,153.65,,,,,210,225,237.5,,,,,,237.5,Pro Submasters 33-39,No,M,B,Multi-ply,,237.5,,1984,
1,Aleksandr Makey,Belarus,110,109.8,,,,,305,315,-325,,,,,,315,Pro Masters 55-59,No,M,B,Multi-ply,,315,,1964,
1,Paweł Pruszyński,Poland,90,88.45,,,,,190,200,210,,,,,,210,Pro Military/Fire/Police,No,M,B,Multi-ply,,210,,1988,
1,Jussi Kananen,Finland,140+,153.65,,,,,210,225,237.5,,,,,,237.5,Pro Military/Fire/Police,No,M,B,Multi-ply,,237.5,,1984,
