Division,WeightClassKg,Place,Name,Team,BodyweightKg,Best3SquatKg,Best3BenchKg,Best3DeadliftKg,TotalKg,Equipment,Event,Sex
Boys,51.71,1,Everado Garcia,Roma,51.53,195.04,97.52,195.04,487.61,Single-ply,SBD,M
Boys,51.71,2,Damian Gonzalez,Roma,51.71,172.37,99.79,185.97,458.13,Single-ply,SBD,M
Boys,51.71,3,Felipe Garza,McAllen,50.35,151.95,106.59,156.49,415.04,Single-ply,SBD,M
Boys,51.71,4,Fernando Gonzalez,McAllen Memorial,51.71,142.88,90.72,170.1,403.7,Single-ply,SBD,M
Boys,51.71,5,Victor Vasques,Sharyland Pioneer,49.9,104.33,49.9,124.74,278.96,Single-ply,SBD,M
Boys,51.71,6,Antonio Pena,Mission Veterans Memorial,51.71,92.99,47.63,124.74,265.35,Single-ply,SBD,M
Boys,51.71,DQ,Martin Alaniz,Sharyland Pioneer,51.26,151.95,68.04,,,Single-ply,SBD,M
Boys,55.79,1,Kevin Trevino,McAllen Memorial,55.79,181.44,117.93,183.7,483.08,Single-ply,SBD,M
Boys,55.79,2,Fernando Mendoza,McAllen Rowe,55.16,145.15,95.25,181.44,421.84,Single-ply,SBD,M
Boys,55.79,3,Giovanni Salazar,La Joya,52.25,154.22,79.38,151.95,385.55,Single-ply,SBD,M
Boys,55.79,4,Alejandro Gonzalez,Rio Grande City,53.52,92.99,63.5,102.06,258.55,Single-ply,SBD,M
Boys,59.87,1,Hugo Rodriguez,McAllen,58.97,206.38,117.93,181.44,505.76,Single-ply,SBD,M
Boys,59.87,2,Lino Rivera,La Joya,59.69,183.7,102.06,151.95,437.72,Single-ply,SBD,M
Boys,59.87,3,Anthony Trevino,Rio Grande City Grulla,59.78,147.42,90.72,188.24,426.38,Single-ply,SBD,M
Boys,59.87,4,Gavin Gomez,Mission Veterans Memorial,58.15,106.59,74.84,102.06,283.5,Single-ply,SBD,M
Boys,67.13,1,Fernie Briones,McAllen Memorial,66.22,208.65,136.08,199.58,544.31,Single-ply,SBD,M
Boys,67.13,2,Michael Tamez,La Joya Palmview,65.32,204.12,120.2,206.38,530.7,Single-ply,SBD,M
Boys,67.13,3,Kameron Maples,McAllen Memorial,65.14,165.56,117.93,185.97,469.47,Single-ply,SBD,M
Boys,67.13,4,Adan Elizondo,La Joya,65.68,151.95,104.33,156.49,412.77,Single-ply,SBD,M
Boys,67.13,5,Isaac Iglesia,Mission Veterans Memorial,62.51,111.13,88.45,115.67,315.25,Single-ply,SBD,M
Boys,67.13,6,Zachary Gutirrez,Mission Veterans Memorial,66.04,102.06,74.84,111.13,288.03,Single-ply,SBD,M
Boys,74.84,1,Fabian Rodriguez,McAllen Memorial,74.84,226.8,136.08,226.8,589.67,Single-ply,SBD,M
Boys,74.84,2,Brian Pena,Rio Grande City,74.12,204.12,129.27,197.31,530.7,Single-ply,SBD,M
Boys,74.84,3,Albert Troncoso,Mission Veterans Memorial,71.12,192.78,117.93,195.04,505.76,Single-ply,SBD,M
Boys,74.84,4,Carlos Arjona,La Joya Palmview,69.85,199.58,108.86,174.63,483.08,Single-ply,SBD,M
Boys,74.84,5,Ruben D Saenz III,McAllen Rowe,68.86,185.97,97.52,174.63,458.13,Single-ply,SBD,M
Boys,74.84,6,Brualio Garza,Rio Grande City Grulla,71.49,154.22,104.33,163.29,421.84,Single-ply,SBD,M
Boys,74.84,7,Jose Ramirez #14,Rio Grande City Grulla,74.84,165.56,72.57,154.22,392.36,Single-ply,SBD,M
Boys,82.1,1,Oscar Mendoza,La Joya Palmview,80.65,254.01,154.22,235.87,644.1,Single-ply,SBD,M
Boys,82.1,2,Sebastian Sanchez,Mission Sharyland,81.01,247.21,127.01,238.14,612.35,Single-ply,SBD,M
Boys,82.1,3,Damian Gutierrez,Roma,81.37,226.8,147.42,222.26,596.47,Single-ply,SBD,M
Boys,82.1,4,Adrian Lira,McAllen Memorial,76.75,199.58,145.15,197.31,542.04,Single-ply,SBD,M
Boys,82.1,5,Armando Resendez,McAllen Memorial,80.83,226.8,124.74,185.97,537.51,Single-ply,SBD,M
Boys,82.1,6,Tripp Potter,McAllen,81.19,201.85,115.67,210.92,528.44,Single-ply,SBD,M
Boys,82.1,7,Jose Rodriguez #10,Rio Grande City,79.2,183.7,131.54,172.37,487.61,Single-ply,SBD,M
Boys,82.1,8,Rosbel Zamarripa,La Joya Palmview,80.65,183.7,111.13,190.51,485.34,Single-ply,SBD,M
Boys,82.1,9,Jose Ibarra,Mission Veterans Memorial,82.01,183.7,113.4,183.7,480.81,Single-ply,SBD,M
Boys,82.1,10,Roman Ortiz,La Joya Palmview,77.75,124.74,79.38,90.72,294.84,Single-ply,SBD,M
Boys,89.81,1,Sebastian Buitron,McAllen,89.81,260.82,136.08,256.28,653.17,Single-ply,SBD,M
Boys,89.81,2,Roland Briseno,McAllen,85.37,233.6,158.76,183.7,576.06,Single-ply,SBD,M
Boys,89.81,3,Aaron Longoria,Mission Veterans Memorial,87.72,229.06,127.01,201.85,557.92,Single-ply,SBD,M
Boys,89.81,4,Leo Gonzalez,Mission Veterans Memorial,85.46,215.46,104.33,192.78,512.56,Single-ply,SBD,M
Boys,89.81,5,Marc Garcia,La Joya,83.55,206.38,120.2,172.37,498.95,Single-ply,SBD,M
Boys,89.81,6,Abraham Guevara,McAllen Rowe,89.81,176.9,108.86,197.31,483.08,Single-ply,SBD,M
Boys,89.81,7,Ruben Ramirez,Mission Veterans Memorial,89.36,181.44,97.52,172.37,451.32,Single-ply,SBD,M
Boys,89.81,8,Angel Olvera,La Joya,84.37,188.24,83.91,158.76,430.91,Single-ply,SBD,M
Boys,89.81,9,Gabriel Ramirez,La Joya Palmview,85.82,136.08,92.99,90.72,319.78,Single-ply,SBD,M
Boys,99.79,1,Julian Hernandez,McAllen Memorial,93.17,276.69,158.76,204.12,639.57,Single-ply,SBD,M
Boys,99.79,2,Jesus Chavana,La Joya,97.25,240.4,117.93,247.21,605.55,Single-ply,SBD,M
Boys,99.79,3,Alberto Vargas,La Joya Palmview,96.8,231.33,149.69,208.65,589.67,Single-ply,SBD,M
Boys,99.79,4,Daniel Alejandro,McAllen Rowe,96.89,224.53,138.35,213.19,576.06,Single-ply,SBD,M
Boys,99.79,5,John Garcia,Mission Veterans Memorial,94.35,242.67,136.08,195.04,573.79,Single-ply,SBD,M
Boys,99.79,6,Moises Pena,Rio Grande City Grulla,96.52,231.33,131.54,192.78,555.65,Single-ply,SBD,M
Boys,99.79,7,Zac Compean,Rio Grande City,96.25,210.92,129.27,190.51,530.7,Single-ply,SBD,M
Boys,99.79,8,Mark Pacheco,McAllen Rowe,92.26,181.44,131.54,195.04,508.02,Single-ply,SBD,M
Boys,99.79,9,Abelino Lopez,Rio Grande City Grulla,94.44,192.78,106.59,192.78,492.15,Single-ply,SBD,M
Boys,99.79,10,Devin Gonzalez #1,Rio Grande City,91.17,138.35,124.74,163.29,426.38,Single-ply,SBD,M
Boys,99.79,11,Jose Cavazos,McAllen Rowe,99.79,161.03,90.72,158.76,410.5,Single-ply,SBD,M
Boys,99.79,12,Victoriano Chapa,Rio Grande City Grulla,94.53,151.95,88.45,154.22,394.63,Single-ply,SBD,M
Boys,109.77,1,Daniel Domian,McAllen Memorial,107.86,269.89,172.37,242.67,684.92,Single-ply,SBD,M
Boys,109.77,2,Steven Pedraza,McAllen,108.77,238.14,151.95,240.4,630.49,Single-ply,SBD,M
Boys,109.77,3,Rusbel Alaniz,Rio Grande City Grulla,105.51,224.53,136.08,217.72,578.33,Single-ply,SBD,M
Boys,109.77,4,Kris Garza,Rio Grande City,108.05,233.6,142.88,201.85,578.33,Single-ply,SBD,M
Boys,109.77,5,Gonzalo Montalvo,Rio Grande City Grulla,105.6,206.38,136.08,197.31,539.77,Single-ply,SBD,M
Boys,109.77,6,Benjamin Rios,Rio Grande City Grulla,104.69,167.83,104.33,183.7,455.86,Single-ply,SBD,M
Boys,124.74,1,Juan Rivas,La Joya Palmview,121.02,312.98,195.04,249.48,757.5,Single-ply,SBD,M
Boys,124.74,2,Sergio Reyna,McAllen Memorial,123.01,299.37,176.9,226.8,703.07,Single-ply,SBD,M
Boys,124.74,3,Joshua Williams,Mission Sharyland,123.01,285.76,170.1,247.21,703.07,Single-ply,SBD,M
Boys,124.74,4,Miguel Salazar,Rio Grande City Grulla,117.66,244.94,136.08,240.4,621.42,Single-ply,SBD,M
Boys,124.74,5,Aalok Zimmerman,McAllen Rowe,122.56,249.48,158.76,204.12,612.35,Single-ply,SBD,M
Boys,124.74,6,Jesse Garza,McAllen Rowe,115.39,226.8,147.42,226.8,601.01,Single-ply,SBD,M
Boys,124.74,7,Anthony Ortiz,Rio Grande City,121.47,224.53,147.42,201.85,573.79,Single-ply,SBD,M
Boys,124.74,8,Joshua Valerio,McAllen,112.67,215.46,138.35,213.19,566.99,Single-ply,SBD,M
Boys,124.74,9,Alex Mendiola,La Joya Palmview,120.66,226.8,124.74,195.04,546.58,Single-ply,SBD,M
Boys,124.74,10,Humberto Gonzalez,Rio Grande City,112.4,176.9,102.06,158.76,437.72,Single-ply,SBD,M
Boys,124.74,11,Isaiah Baker,Mission Veterans Memorial,113.22,156.49,90.72,172.37,419.57,Single-ply,SBD,M
Boys,124.74,12,Kristian Corona,Rio Grande City Grulla,120.84,149.69,95.25,165.56,410.5,Single-ply,SBD,M
Boys,124.74+,1,Jacob Mata,McAllen Rowe,141.97,217.72,167.83,213.19,598.74,Single-ply,SBD,M
Boys,124.74+,2,Jimmy Talamantes,McAllen Rowe,141.97,222.26,129.27,165.56,517.1,Single-ply,SBD,M
Boys,124.74+,3,Isaias Garcia,La Joya Palmview,155.22,129.27,63.5,136.08,328.85,Single-ply,SBD,M
