Division,WeightClassKg,Place,Name,Team,BodyweightKg,Best3SquatKg,Best3BenchKg,Best3DeadliftKg,TotalKg,Equipment,Event,Sex,BirthDate
Boys,55.79,1,Avery Whitlow,Atlanta,55.75,147.42,74.84,147.42,369.68,Single-ply,SBD,M,
Boys,55.79,2,Josiah Hunt,Atlanta,55.07,127.01,63.5,138.35,328.85,Single-ply,SBD,M,
Boys,55.79,3,Seth Hicks,Hughes Springs,54.48,122.47,74.84,122.47,319.78,Single-ply,SBD,M,
Boys,67.13,1,Aundra Haskins,Atlanta,63.46,161.03,108.86,151.95,421.84,Single-ply,SBD,M,
Boys,82.1,1,Roman Roberts,Redwater,76.29,219.99,138.35,226.8,585.13,Single-ply,SBD,M,
Boys,82.1,2,Dekorian Parker,Atlanta,81.6,195.04,149.69,199.58,544.31,Single-ply,SBD,M,
Boys,82.1,3,Camden Foster,Carthage,80.56,201.85,111.13,206.38,519.36,Single-ply,SBD,M,
Boys,89.81,1,Cole Edwards #1,Hughes Springs,89.45,222.26,138.35,219.99,580.6,Single-ply,SBD,M,
Boys,99.79,1,Carlos Rojas,Redwater,99.74,290.3,158.76,235.87,684.92,Single-ply,SBD,M,
Boys,99.79,2,Clay Fant,Atlanta,99.74,244.94,142.88,226.8,614.62,Single-ply,SBD,M,
Boys,99.79,3,Ty Blizzard,Atlanta,95.21,217.72,149.69,222.26,589.67,Single-ply,SBD,M,
Boys,99.79,4,Octavio Resendiz,Clarksville,97.61,158.76,104.33,172.37,435.45,Single-ply,SBD,M,
Boys,109.77,1,John Collier,Redwater,104.42,317.51,154.22,274.42,746.16,Single-ply,SBD,M,
Boys,109.77,2,Tarik Hussien,Redwater,108.41,249.48,176.9,238.14,664.51,Single-ply,SBD,M,
Boys,109.77,3,Oscar Rodríguez,Hughes Springs,101.83,190.51,,195.04,385.55,Single-ply,SD,M,
Boys,124.74,1,Jaden Wells,Atlanta,118.57,244.94,163.29,235.87,644.1,Single-ply,SBD,M,
Boys,124.74,2,DeAundre Mitchell,Atlanta,112.49,129.27,111.13,151.95,392.36,Single-ply,SBD,M,
Boys,139.71,1,Laynce Welch,Waskom,132.68,260.82,122.47,210.92,594.21,Single-ply,SBD,M,
Boys,139.71,2,Caden Walker,Atlanta,125.96,226.8,136.08,215.46,578.33,Single-ply,SBD,M,
Boys,139.71,3,Billy Stewart,Clarksville,130.45,158.76,99.79,163.29,421.84,Single-ply,SBD,M,
Boys,139.71+,1,Zack Carlisle,Carthage,147.19,208.65,102.06,204.12,514.83,Single-ply,SBD,M,
